{
  "protocol_version" : "0.0.6",
  "configuration" : {
    "version" : "(6.12.0.122) (tarball)",
    "tlc" : "__thread",
    "sigsgev" : "altstack",
    "notifications" : "epoll",
    "architecture" : "amd64",
    "disabled_features" : "none",
    "smallconfig" : "disabled",
    "bigarrays" : "disabled",
    "softdebug" : "enabled",
    "interpreter" : "enabled",
    "llvm_support" : "610",
    "suspend" : "hybrid"
  },
  "memory" : {
    "minor_gc_time" : "288671",
    "major_gc_time" : "0",
    "minor_gc_count" : "13",
    "major_gc_count" : "0",
    "major_gc_time_concurrent" : "0"
 },
  "threads" : [
 {
    "is_managed" : true,
    "offset_free_hash" : "0x8e304352a",
    "offset_rich_hash" : "0x8e30437bb",
    "crashed" : false,
    "native_thread_id" : "0x7efdee97f700",
    "thread_info_addr" : "0x7efdc0000b60",
    "thread_name" : "In-proc Node (D",
    "ctx" : {
      "IP" : "0x7efdf7764376",
      "SP" : "0x7efdee97def0",
      "BP" : "0x55cdd4e01000"
  },
    "managed_frames" : [
  {
      "is_managed" : "false",
      "native_address" : "unregistered"
   }
,
  {
      "is_managed" : "true",
      "guid" : "533173D2-4DAE-4608-99D2-B10975534BB0",
      "token" : "0x00000",
      "native_offset" : "0x0",
      "filename" : "mscorlib.dll",
      "sizeofimage" : "0x472000",
      "timestamp" : "0x99dbfea7",
      "il_offset" : "0x00000"
   }
,
  {
      "is_managed" : "true",
      "guid" : "533173D2-4DAE-4608-99D2-B10975534BB0",
      "token" : "0x6002052",
      "native_offset" : "0x0",
      "filename" : "mscorlib.dll",
      "sizeofimage" : "0x472000",
      "timestamp" : "0x99dbfea7",
      "il_offset" : "0x000c7"
   }
,
  {
      "is_managed" : "true",
      "guid" : "533173D2-4DAE-4608-99D2-B10975534BB0",
      "token" : "0x6002044",
      "native_offset" : "0x0",
      "filename" : "mscorlib.dll",
      "sizeofimage" : "0x472000",
      "timestamp" : "0x99dbfea7",
      "il_offset" : "0x000a1"
   }
,
  {
      "is_managed" : "true",
      "guid" : "533173D2-4DAE-4608-99D2-B10975534BB0",
      "token" : "0x6002047",
      "native_offset" : "0x0",
      "filename" : "mscorlib.dll",
      "sizeofimage" : "0x472000",
      "timestamp" : "0x99dbfea7",
      "il_offset" : "0x00000"
   }
,
  {
      "is_managed" : "true",
      "guid" : "F5C26A75-6012-4A5F-9B72-55EB2A34A9A9",
      "token" : "0x600127d",
      "native_offset" : "0x0",
      "filename" : "Microsoft.Build.dll",
      "sizeofimage" : "0x1e6000",
      "timestamp" : "0xd74c9315",
      "il_offset" : "0x00047"
   }
,
  {
      "is_managed" : "true",
      "guid" : "F5C26A75-6012-4A5F-9B72-55EB2A34A9A9",
      "token" : "0x600149c",
      "native_offset" : "0x0",
      "filename" : "Microsoft.Build.dll",
      "sizeofimage" : "0x1e6000",
      "timestamp" : "0xd74c9315",
      "il_offset" : "0x00000"
   }
,
  {
      "is_managed" : "true",
      "guid" : "533173D2-4DAE-4608-99D2-B10975534BB0",
      "token" : "0x6001f1c",
      "native_offset" : "0x0",
      "filename" : "mscorlib.dll",
      "sizeofimage" : "0x472000",
      "timestamp" : "0x99dbfea7",
      "il_offset" : "0x00014"
   }
,
  {
      "is_managed" : "true",
      "guid" : "533173D2-4DAE-4608-99D2-B10975534BB0",
      "token" : "0x6001ec4",
      "native_offset" : "0x0",
      "filename" : "mscorlib.dll",
      "sizeofimage" : "0x472000",
      "timestamp" : "0x99dbfea7",
      "il_offset" : "0x00071"
   }
,
  {
      "is_managed" : "true",
      "guid" : "533173D2-4DAE-4608-99D2-B10975534BB0",
      "token" : "0x6001ec2",
      "native_offset" : "0x0",
      "filename" : "mscorlib.dll",
      "sizeofimage" : "0x472000",
      "timestamp" : "0x99dbfea7",
      "il_offset" : "0x00000"
   }
,
  {
      "is_managed" : "true",
      "guid" : "533173D2-4DAE-4608-99D2-B10975534BB0",
      "token" : "0x6001ec1",
      "native_offset" : "0x0",
      "filename" : "mscorlib.dll",
      "sizeofimage" : "0x472000",
      "timestamp" : "0x99dbfea7",
      "il_offset" : "0x0002b"
   }
,
  {
      "is_managed" : "true",
      "guid" : "533173D2-4DAE-4608-99D2-B10975534BB0",
      "token" : "0x6001f1e",
      "native_offset" : "0x0",
      "filename" : "mscorlib.dll",
      "sizeofimage" : "0x472000",
      "timestamp" : "0x99dbfea7",
      "il_offset" : "0x00008"
   }
,
  {
      "is_managed" : "true",
      "guid" : "533173D2-4DAE-4608-99D2-B10975534BB0",
      "token" : "0x00000",
      "native_offset" : "0x0",
      "filename" : "mscorlib.dll",
      "sizeofimage" : "0x472000",
      "timestamp" : "0x99dbfea7",
      "il_offset" : "0x0002a"
   }

  ],
  "unmanaged_frames" : [
 {
    "is_managed" : "false",
    "native_address" : "0x55cdd47ec4c9",
    "native_offset" : "0x00000"
  }
,
 {
    "is_managed" : "false",
    "native_address" : "0x55cdd49d2319",
    "native_offset" : "0x00000"
  }
,
 {
    "is_managed" : "false",
    "native_address" : "0x55cdd49d3655",
    "native_offset" : "0x00000"
  }
,
 {
    "is_managed" : "false",
    "native_address" : "0x55cdd49dc6c7",
    "native_offset" : "0x00000"
  }
,
 {
    "is_managed" : "false",
    "native_address" : "0x55cdd48415b5",
    "native_offset" : "0x00000"
  }
,
 {
    "is_managed" : "false",
    "native_address" : "0x7efdf77693c0",
    "native_offset" : "0x00000"
  }
,
 {
    "is_managed" : "false",
    "native_address" : "0x7efdf7764376",
    "native_offset" : "0x00000"
  }
,
 {
    "is_managed" : "false",
    "native_address" : "0x55cdd4a87efd",
    "native_offset" : "0x00000"
  }
,
 {
    "is_managed" : "false",
    "native_address" : "0x55cdd49e638c",
    "native_offset" : "0x00000"
  }
,
 {
    "is_managed" : "false",
    "native_address" : "0x55cdd49e886d",
    "native_offset" : "0x00000"
  }
,
 {
    "is_managed" : "false",
    "native_address" : "0x55cdd49d954d",
    "native_offset" : "0x00000"
  }
,
 {
    "is_managed" : "false",
    "native_address" : "0x55cdd4971223",
    "native_offset" : "0x00000"
  }
,
 {
    "is_managed" : "true",
    "guid" : "533173D2-4DAE-4608-99D2-B10975534BB0",
    "token" : "0x00000",
    "native_offset" : "0x0",
    "filename" : "mscorlib.dll",
    "sizeofimage" : "0x472000",
    "timestamp" : "0x99dbfea7",
    "il_offset" : "0x00000"
  }

 ]
},
{
  "is_managed" : true,
  "offset_free_hash" : "0x1123e3eff7",
  "offset_rich_hash" : "0x1123e3f44c",
  "crashed" : false,
  "native_thread_id" : "0x7efdecdbf700",
  "thread_info_addr" : "0x7efda80008d0",
  "thread_name" : "Thread Pool Wor",
  "ctx" : {
    "IP" : "0x7efdf7764376",
    "SP" : "0x7efdecdbd420",
    "BP" : "0x55cdd53c9d80"
 },
  "managed_frames" : [
 {
    "is_managed" : "false",
    "native_address" : "unregistered"
  }
,
 {
    "is_managed" : "true",
    "guid" : "533173D2-4DAE-4608-99D2-B10975534BB0",
    "token" : "0x00000",
    "native_offset" : "0x0",
    "filename" : "mscorlib.dll",
    "sizeofimage" : "0x472000",
    "timestamp" : "0x99dbfea7",
    "il_offset" : "0x00000"
  }
,
 {
    "is_managed" : "true",
    "guid" : "533173D2-4DAE-4608-99D2-B10975534BB0",
    "token" : "0x6002051",
    "native_offset" : "0x0",
    "filename" : "mscorlib.dll",
    "sizeofimage" : "0x472000",
    "timestamp" : "0x99dbfea7",
    "il_offset" : "0x00044"
  }
,
 {
    "is_managed" : "true",
    "guid" : "533173D2-4DAE-4608-99D2-B10975534BB0",
    "token" : "0x600203d",
    "native_offset" : "0x0",
    "filename" : "mscorlib.dll",
    "sizeofimage" : "0x472000",
    "timestamp" : "0x99dbfea7",
    "il_offset" : "0x00014"
  }
,
 {
    "is_managed" : "true",
    "guid" : "533173D2-4DAE-4608-99D2-B10975534BB0",
    "token" : "0x600203c",
    "native_offset" : "0x0",
    "filename" : "mscorlib.dll",
    "sizeofimage" : "0x472000",
    "timestamp" : "0x99dbfea7",
    "il_offset" : "0x00000"
  }
,
 {
    "is_managed" : "true",
    "guid" : "533173D2-4DAE-4608-99D2-B10975534BB0",
    "token" : "0x6002037",
    "native_offset" : "0x0",
    "filename" : "mscorlib.dll",
    "sizeofimage" : "0x472000",
    "timestamp" : "0x99dbfea7",
    "il_offset" : "0x00019"
  }
,
 {
    "is_managed" : "true",
    "guid" : "533173D2-4DAE-4608-99D2-B10975534BB0",
    "token" : "0x6002039",
    "native_offset" : "0x0",
    "filename" : "mscorlib.dll",
    "sizeofimage" : "0x472000",
    "timestamp" : "0x99dbfea7",
    "il_offset" : "0x00000"
  }
,
 {
    "is_managed" : "true",
    "guid" : "F9C97B26-2149-4D4F-A382-A0BDDF871DA8",
    "token" : "0x6000084",
    "native_offset" : "0x0",
    "filename" : "MonoDevelop.MSBuildBuilder.exe",
    "sizeofimage" : "0x14000",
    "timestamp" : "0xde5f999a",
    "il_offset" : "0x000ef"
  }
,
 {
    "is_managed" : "true",
    "guid" : "F9C97B26-2149-4D4F-A382-A0BDDF871DA8",
    "token" : "0x600009d",
    "native_offset" : "0x0",
    "filename" : "MonoDevelop.MSBuildBuilder.exe",
    "sizeofimage" : "0x14000",
    "timestamp" : "0xde5f999a",
    "il_offset" : "0x0006e"
  }
,
 {
    "is_managed" : "true",
    "guid" : "F9C97B26-2149-4D4F-A382-A0BDDF871DA8",
    "token" : "0x600007b",
    "native_offset" : "0x0",
    "filename" : "MonoDevelop.MSBuildBuilder.exe",
    "sizeofimage" : "0x14000",
    "timestamp" : "0xde5f999a",
    "il_offset" : "0x0006d"
  }
,
 {
    "is_managed" : "true",
    "guid" : "F9C97B26-2149-4D4F-A382-A0BDDF871DA8",
    "token" : "0x00000",
    "native_offset" : "0x0",
    "filename" : "MonoDevelop.MSBuildBuilder.exe",
    "sizeofimage" : "0x14000",
    "timestamp" : "0xde5f999a",
    "il_offset" : "0x0002a"
  }
,
 {
    "is_managed" : "false",
    "native_address" : "unregistered"
  }
,
 {
    "is_managed" : "true",
    "guid" : "533173D2-4DAE-4608-99D2-B10975534BB0",
    "token" : "0x00000",
    "native_offset" : "0x0",
    "filename" : "mscorlib.dll",
    "sizeofimage" : "0x472000",
    "timestamp" : "0x99dbfea7",
    "il_offset" : "0x0000c"
  }
,
 {
    "is_managed" : "true",
    "guid" : "533173D2-4DAE-4608-99D2-B10975534BB0",
    "token" : "0x6004ce5",
    "native_offset" : "0x0",
    "filename" : "mscorlib.dll",
    "sizeofimage" : "0x472000",
    "timestamp" : "0x99dbfea7",
    "il_offset" : "0x0006a"
  }
,
 {
    "is_managed" : "true",
    "guid" : "533173D2-4DAE-4608-99D2-B10975534BB0",
    "token" : "0x60048c9",
    "native_offset" : "0x0",
    "filename" : "mscorlib.dll",
    "sizeofimage" : "0x472000",
    "timestamp" : "0x99dbfea7",
    "il_offset" : "0x00000"
  }
,
 {
    "is_managed" : "true",
    "guid" : "F9C97B26-2149-4D4F-A382-A0BDDF871DA8",
    "token" : "0x6000039",
    "native_offset" : "0x0",
    "filename" : "MonoDevelop.MSBuildBuilder.exe",
    "sizeofimage" : "0x14000",
    "timestamp" : "0xde5f999a",
    "il_offset" : "0x00019"
  }
,
 {
    "is_managed" : "true",
    "guid" : "F9C97B26-2149-4D4F-A382-A0BDDF871DA8",
    "token" : "0x6000166",
    "native_offset" : "0x0",
    "filename" : "MonoDevelop.MSBuildBuilder.exe",
    "sizeofimage" : "0x14000",
    "timestamp" : "0xde5f999a",
    "il_offset" : "0x00029"
  }
,
 {
    "is_managed" : "true",
    "guid" : "F9C97B26-2149-4D4F-A382-A0BDDF871DA8",
    "token" : "0x6000181",
    "native_offset" : "0x0",
    "filename" : "MonoDevelop.MSBuildBuilder.exe",
    "sizeofimage" : "0x14000",
    "timestamp" : "0xde5f999a",
    "il_offset" : "0x00001"
  }
,
 {
    "is_managed" : "true",
    "guid" : "533173D2-4DAE-4608-99D2-B10975534BB0",
    "token" : "0x6001fea",
    "native_offset" : "0x0",
    "filename" : "mscorlib.dll",
    "sizeofimage" : "0x472000",
    "timestamp" : "0x99dbfea7",
    "il_offset" : "0x00007"
  }
,
 {
    "is_managed" : "true",
    "guid" : "533173D2-4DAE-4608-99D2-B10975534BB0",
    "token" : "0x6001ec4",
    "native_offset" : "0x0",
    "filename" : "mscorlib.dll",
    "sizeofimage" : "0x472000",
    "timestamp" : "0x99dbfea7",
    "il_offset" : "0x00071"
  }
,
 {
    "is_managed" : "true",
    "guid" : "533173D2-4DAE-4608-99D2-B10975534BB0",
    "token" : "0x6001ec2",
    "native_offset" : "0x0",
    "filename" : "mscorlib.dll",
    "sizeofimage" : "0x472000",
    "timestamp" : "0x99dbfea7",
    "il_offset" : "0x00000"
  }
,
 {
    "is_managed" : "true",
    "guid" : "533173D2-4DAE-4608-99D2-B10975534BB0",
    "token" : "0x6001fe8",
    "native_offset" : "0x0",
    "filename" : "mscorlib.dll",
    "sizeofimage" : "0x472000",
    "timestamp" : "0x99dbfea7",
    "il_offset" : "0x00021"
  }
,
 {
    "is_managed" : "true",
    "guid" : "533173D2-4DAE-4608-99D2-B10975534BB0",
    "token" : "0x6001fd0",
    "native_offset" : "0x0",
    "filename" : "mscorlib.dll",
    "sizeofimage" : "0x472000",
    "timestamp" : "0x99dbfea7",
    "il_offset" : "0x00074"
  }
,
 {
    "is_managed" : "true",
    "guid" : "533173D2-4DAE-4608-99D2-B10975534BB0",
    "token" : "0x6001fe5",
    "native_offset" : "0x0",
    "filename" : "mscorlib.dll",
    "sizeofimage" : "0x472000",
    "timestamp" : "0x99dbfea7",
    "il_offset" : "0x00000"
  }
,
 {
    "is_managed" : "true",
    "guid" : "533173D2-4DAE-4608-99D2-B10975534BB0",
    "token" : "0x00000",
    "native_offset" : "0x0",
    "filename" : "mscorlib.dll",
    "sizeofimage" : "0x472000",
    "timestamp" : "0x99dbfea7",
    "il_offset" : "0x0002a"
  }

 ],
"unmanaged_frames" : [
{
  "is_managed" : "false",
  "native_address" : "0x55cdd47ec4c9",
  "native_offset" : "0x00000"
 }
,
{
  "is_managed" : "false",
  "native_address" : "0x55cdd49d2319",
  "native_offset" : "0x00000"
 }
,
{
  "is_managed" : "false",
  "native_address" : "0x55cdd49d3655",
  "native_offset" : "0x00000"
 }
,
{
  "is_managed" : "false",
  "native_address" : "0x55cdd49dc6c7",
  "native_offset" : "0x00000"
 }
,
{
  "is_managed" : "false",
  "native_address" : "0x55cdd48415b5",
  "native_offset" : "0x00000"
 }
,
{
  "is_managed" : "false",
  "native_address" : "0x7efdf77693c0",
  "native_offset" : "0x00000"
 }
,
{
  "is_managed" : "false",
  "native_address" : "0x7efdf7764376",
  "native_offset" : "0x00000"
 }
,
{
  "is_managed" : "false",
  "native_address" : "0x55cdd4a87efd",
  "native_offset" : "0x00000"
 }
,
{
  "is_managed" : "false",
  "native_address" : "0x55cdd49e6aec",
  "native_offset" : "0x00000"
 }
,
{
  "is_managed" : "false",
  "native_address" : "0x55cdd49e80ff",
  "native_offset" : "0x00000"
 }
,
{
  "is_managed" : "false",
  "native_address" : "0x55cdd49e87f0",
  "native_offset" : "0x00000"
 }
,
{
  "is_managed" : "false",
  "native_address" : "0x55cdd49d954d",
  "native_offset" : "0x00000"
 }
,
{
  "is_managed" : "false",
  "native_address" : "0x55cdd4971223",
  "native_offset" : "0x00000"
 }
,
{
  "is_managed" : "true",
  "guid" : "533173D2-4DAE-4608-99D2-B10975534BB0",
  "token" : "0x00000",
  "native_offset" : "0x0",
  "filename" : "mscorlib.dll",
  "sizeofimage" : "0x472000",
  "timestamp" : "0x99dbfea7",
  "il_offset" : "0x00000"
 }

]
},
{
"is_managed" : true,
"offset_free_hash" : "0x91ff0010d",
"offset_rich_hash" : "0x91ff0029b",
"crashed" : false,
"native_thread_id" : "0x7efdefbee700",
"thread_info_addr" : "0x7efde8000b60",
"thread_name" : "mono",
"ctx" : {
  "IP" : "0x7efdf77686c2",
  "SP" : "0x7efdefbed4a0",
  "BP" : "(nil)"
},
"managed_frames" : [
{
  "is_managed" : "false",
  "native_address" : "unregistered"
 }
,
{
  "is_managed" : "true",
  "guid" : "9C6E2CB7-DDD8-473F-A420-642DDCF7CE48",
  "token" : "0x00000",
  "native_offset" : "0x0",
  "filename" : "System.dll",
  "sizeofimage" : "0x286000",
  "timestamp" : "0xe193f384",
  "il_offset" : "0x00000"
 }
,
{
  "is_managed" : "true",
  "guid" : "9C6E2CB7-DDD8-473F-A420-642DDCF7CE48",
  "token" : "0x600268d",
  "native_offset" : "0x0",
  "filename" : "System.dll",
  "sizeofimage" : "0x286000",
  "timestamp" : "0xe193f384",
  "il_offset" : "0x0000c"
 }
,
{
  "is_managed" : "true",
  "guid" : "9C6E2CB7-DDD8-473F-A420-642DDCF7CE48",
  "token" : "0x6002680",
  "native_offset" : "0x0",
  "filename" : "System.dll",
  "sizeofimage" : "0x286000",
  "timestamp" : "0xe193f384",
  "il_offset" : "0x0002e"
 }
,
{
  "is_managed" : "true",
  "guid" : "9C6E2CB7-DDD8-473F-A420-642DDCF7CE48",
  "token" : "0x6002683",
  "native_offset" : "0x0",
  "filename" : "System.dll",
  "sizeofimage" : "0x286000",
  "timestamp" : "0xe193f384",
  "il_offset" : "0x0000d"
 }
,
{
  "is_managed" : "true",
  "guid" : "9C6E2CB7-DDD8-473F-A420-642DDCF7CE48",
  "token" : "0x60025b8",
  "native_offset" : "0x0",
  "filename" : "System.dll",
  "sizeofimage" : "0x286000",
  "timestamp" : "0xe193f384",
  "il_offset" : "0x0004d"
 }
,
{
  "is_managed" : "true",
  "guid" : "9C6E2CB7-DDD8-473F-A420-642DDCF7CE48",
  "token" : "0x60025b9",
  "native_offset" : "0x0",
  "filename" : "System.dll",
  "sizeofimage" : "0x286000",
  "timestamp" : "0xe193f384",
  "il_offset" : "0x0000a"
 }
,
{
  "is_managed" : "true",
  "guid" : "F9C97B26-2149-4D4F-A382-A0BDDF871DA8",
  "token" : "0x600005d",
  "native_offset" : "0x0",
  "filename" : "MonoDevelop.MSBuildBuilder.exe",
  "sizeofimage" : "0x14000",
  "timestamp" : "0xde5f999a",
  "il_offset" : "0x0000e"
 }
,
{
  "is_managed" : "true",
  "guid" : "533173D2-4DAE-4608-99D2-B10975534BB0",
  "token" : "0x6001f1c",
  "native_offset" : "0x0",
  "filename" : "mscorlib.dll",
  "sizeofimage" : "0x472000",
  "timestamp" : "0x99dbfea7",
  "il_offset" : "0x00014"
 }
,
{
  "is_managed" : "true",
  "guid" : "533173D2-4DAE-4608-99D2-B10975534BB0",
  "token" : "0x6001ec4",
  "native_offset" : "0x0",
  "filename" : "mscorlib.dll",
  "sizeofimage" : "0x472000",
  "timestamp" : "0x99dbfea7",
  "il_offset" : "0x00071"
 }
,
{
  "is_managed" : "true",
  "guid" : "533173D2-4DAE-4608-99D2-B10975534BB0",
  "token" : "0x6001ec2",
  "native_offset" : "0x0",
  "filename" : "mscorlib.dll",
  "sizeofimage" : "0x472000",
  "timestamp" : "0x99dbfea7",
  "il_offset" : "0x00000"
 }
,
{
  "is_managed" : "true",
  "guid" : "533173D2-4DAE-4608-99D2-B10975534BB0",
  "token" : "0x6001ec1",
  "native_offset" : "0x0",
  "filename" : "mscorlib.dll",
  "sizeofimage" : "0x472000",
  "timestamp" : "0x99dbfea7",
  "il_offset" : "0x0002b"
 }
,
{
  "is_managed" : "true",
  "guid" : "533173D2-4DAE-4608-99D2-B10975534BB0",
  "token" : "0x6001f1e",
  "native_offset" : "0x0",
  "filename" : "mscorlib.dll",
  "sizeofimage" : "0x472000",
  "timestamp" : "0x99dbfea7",
  "il_offset" : "0x00008"
 }
,
{
  "is_managed" : "true",
  "guid" : "533173D2-4DAE-4608-99D2-B10975534BB0",
  "token" : "0x00000",
  "native_offset" : "0x0",
  "filename" : "mscorlib.dll",
  "sizeofimage" : "0x472000",
  "timestamp" : "0x99dbfea7",
  "il_offset" : "0x0002a"
 }

],
"unmanaged_frames" : [
{
"is_managed" : "false",
"native_address" : "0x55cdd47ec4c9",
"native_offset" : "0x00000"
}
,
{
"is_managed" : "false",
"native_address" : "0x55cdd49d2319",
"native_offset" : "0x00000"
}
,
{
"is_managed" : "false",
"native_address" : "0x55cdd49d3655",
"native_offset" : "0x00000"
}
,
{
"is_managed" : "false",
"native_address" : "0x55cdd49dc6c7",
"native_offset" : "0x00000"
}
,
{
"is_managed" : "false",
"native_address" : "0x55cdd48415b5",
"native_offset" : "0x00000"
}
,
{
"is_managed" : "false",
"native_address" : "0x7efdf77693c0",
"native_offset" : "0x00000"
}
,
{
"is_managed" : "false",
"native_address" : "0x7efdf77686c2",
"native_offset" : "0x00000"
}
,
{
"is_managed" : "false",
"native_address" : "0x55cdd4a2ab6d",
"native_offset" : "0x00000"
}
,
{
"is_managed" : "false",
"native_address" : "0x55cdd4a2ac61",
"native_offset" : "0x00000"
}
,
{
"is_managed" : "false",
"native_address" : "0x55cdd49c25c4",
"native_offset" : "0x00000"
}
,
{
"is_managed" : "true",
"guid" : "9C6E2CB7-DDD8-473F-A420-642DDCF7CE48",
"token" : "0x00000",
"native_offset" : "0x0",
"filename" : "System.dll",
"sizeofimage" : "0x286000",
"timestamp" : "0xe193f384",
"il_offset" : "0x00000"
}

]
},
{
"is_managed" : false,
"offset_free_hash" : "0x0",
"offset_rich_hash" : "0x0",
"crashed" : false,
"native_thread_id" : "0x7efded39b700",
"thread_info_addr" : "0x7efdb40008d0",
"thread_name" : "Thread Pool Wor",
"ctx" : {
"IP" : "0x7efdf7767618",
"SP" : "0x7efded39ac70",
"BP" : "0x55cdd4e01d88"
},
"unmanaged_frames" : [
{
"is_managed" : "false",
"native_address" : "0x55cdd47ec4c9",
"native_offset" : "0x00000"
}
,
{
"is_managed" : "false",
"native_address" : "0x55cdd49d2319",
"native_offset" : "0x00000"
}
,
{
"is_managed" : "false",
"native_address" : "0x55cdd49d3655",
"native_offset" : "0x00000"
}
,
{
"is_managed" : "false",
"native_address" : "0x55cdd49dc6c7",
"native_offset" : "0x00000"
}
,
{
"is_managed" : "false",
"native_address" : "0x55cdd48415b5",
"native_offset" : "0x00000"
}
,
{
"is_managed" : "false",
"native_address" : "0x7efdf77693c0",
"native_offset" : "0x00000"
}
,
{
"is_managed" : "false",
"native_address" : "0x7efdf7767618",
"native_offset" : "0x00000"
}
,
{
"is_managed" : "false",
"native_address" : "0x7efdf7767743",
"native_offset" : "0x00000"
}
,
{
"is_managed" : "false",
"native_address" : "0x55cdd4a2d7bd",
"native_offset" : "0x00000"
}
,
{
"is_managed" : "false",
"native_address" : "0x55cdd49dbfdc",
"native_offset" : "0x00000"
}
,
{
"is_managed" : "false",
"native_address" : "0x7efdf775d609",
"native_offset" : "0x00000"
}
,
{
"is_managed" : "false",
"native_address" : "0x7efdf7337293",
"native_offset" : "0x00000"
}

]
},
{
"is_managed" : true,
"offset_free_hash" : "0x9bfc75a38",
"offset_rich_hash" : "0x9bfc75bc7",
"crashed" : false,
"native_thread_id" : "0x7efded727700",
"thread_info_addr" : "0x7efdb0000b60",
"thread_name" : "Timer-Scheduler",
"ctx" : {
"IP" : "0x7efdf77647b1",
"SP" : "0x7efded725f10",
"BP" : "0x55cdd53c4ec0"
},
"managed_frames" : [
{
"is_managed" : "false",
"native_address" : "unregistered"
}
,
{
"is_managed" : "true",
"guid" : "533173D2-4DAE-4608-99D2-B10975534BB0",
"token" : "0x00000",
"native_offset" : "0x0",
"filename" : "mscorlib.dll",
"sizeofimage" : "0x472000",
"timestamp" : "0x99dbfea7",
"il_offset" : "0x00000"
}
,
{
"is_managed" : "true",
"guid" : "533173D2-4DAE-4608-99D2-B10975534BB0",
"token" : "0x6002051",
"native_offset" : "0x0",
"filename" : "mscorlib.dll",
"sizeofimage" : "0x472000",
"timestamp" : "0x99dbfea7",
"il_offset" : "0x00044"
}
,
{
"is_managed" : "true",
"guid" : "533173D2-4DAE-4608-99D2-B10975534BB0",
"token" : "0x600203d",
"native_offset" : "0x0",
"filename" : "mscorlib.dll",
"sizeofimage" : "0x472000",
"timestamp" : "0x99dbfea7",
"il_offset" : "0x00014"
}
,
{
"is_managed" : "true",
"guid" : "533173D2-4DAE-4608-99D2-B10975534BB0",
"token" : "0x600203c",
"native_offset" : "0x0",
"filename" : "mscorlib.dll",
"sizeofimage" : "0x472000",
"timestamp" : "0x99dbfea7",
"il_offset" : "0x00000"
}
,
{
"is_managed" : "true",
"guid" : "533173D2-4DAE-4608-99D2-B10975534BB0",
"token" : "0x6002037",
"native_offset" : "0x0",
"filename" : "mscorlib.dll",
"sizeofimage" : "0x472000",
"timestamp" : "0x99dbfea7",
"il_offset" : "0x00019"
}
,
{
"is_managed" : "true",
"guid" : "533173D2-4DAE-4608-99D2-B10975534BB0",
"token" : "0x600203a",
"native_offset" : "0x0",
"filename" : "mscorlib.dll",
"sizeofimage" : "0x472000",
"timestamp" : "0x99dbfea7",
"il_offset" : "0x00000"
}
,
{
"is_managed" : "true",
"guid" : "533173D2-4DAE-4608-99D2-B10975534BB0",
"token" : "0x60020f6",
"native_offset" : "0x0",
"filename" : "mscorlib.dll",
"sizeofimage" : "0x472000",
"timestamp" : "0x99dbfea7",
"il_offset" : "0x0003c"
}
,
{
"is_managed" : "true",
"guid" : "533173D2-4DAE-4608-99D2-B10975534BB0",
"token" : "0x6001f1c",
"native_offset" : "0x0",
"filename" : "mscorlib.dll",
"sizeofimage" : "0x472000",
"timestamp" : "0x99dbfea7",
"il_offset" : "0x00014"
}
,
{
"is_managed" : "true",
"guid" : "533173D2-4DAE-4608-99D2-B10975534BB0",
"token" : "0x6001ec4",
"native_offset" : "0x0",
"filename" : "mscorlib.dll",
"sizeofimage" : "0x472000",
"timestamp" : "0x99dbfea7",
"il_offset" : "0x00071"
}
,
{
"is_managed" : "true",
"guid" : "533173D2-4DAE-4608-99D2-B10975534BB0",
"token" : "0x6001ec2",
"native_offset" : "0x0",
"filename" : "mscorlib.dll",
"sizeofimage" : "0x472000",
"timestamp" : "0x99dbfea7",
"il_offset" : "0x00000"
}
,
{
"is_managed" : "true",
"guid" : "533173D2-4DAE-4608-99D2-B10975534BB0",
"token" : "0x6001ec1",
"native_offset" : "0x0",
"filename" : "mscorlib.dll",
"sizeofimage" : "0x472000",
"timestamp" : "0x99dbfea7",
"il_offset" : "0x0002b"
}
,
{
"is_managed" : "true",
"guid" : "533173D2-4DAE-4608-99D2-B10975534BB0",
"token" : "0x6001f1e",
"native_offset" : "0x0",
"filename" : "mscorlib.dll",
"sizeofimage" : "0x472000",
"timestamp" : "0x99dbfea7",
"il_offset" : "0x00008"
}
,
{
"is_managed" : "true",
"guid" : "533173D2-4DAE-4608-99D2-B10975534BB0",
"token" : "0x00000",
"native_offset" : "0x0",
"filename" : "mscorlib.dll",
"sizeofimage" : "0x472000",
"timestamp" : "0x99dbfea7",
"il_offset" : "0x0002a"
}

],
"unmanaged_frames" : [
{
"is_managed" : "false",
"native_address" : "0x55cdd47ec4c9",
"native_offset" : "0x00000"
}
,
{
"is_managed" : "false",
"native_address" : "0x55cdd49d2319",
"native_offset" : "0x00000"
}
,
{
"is_managed" : "false",
"native_address" : "0x55cdd49d3655",
"native_offset" : "0x00000"
}
,
{
"is_managed" : "false",
"native_address" : "0x55cdd49dc6c7",
"native_offset" : "0x00000"
}
,
{
"is_managed" : "false",
"native_address" : "0x55cdd48415b5",
"native_offset" : "0x00000"
}
,
{
"is_managed" : "false",
"native_address" : "0x7efdf77693c0",
"native_offset" : "0x00000"
}
,
{
"is_managed" : "false",
"native_address" : "0x7efdf77647b1",
"native_offset" : "0x00000"
}
,
{
"is_managed" : "false",
"native_address" : "0x55cdd4a87e9b",
"native_offset" : "0x00000"
}
,
{
"is_managed" : "false",
"native_address" : "0x55cdd49e6aec",
"native_offset" : "0x00000"
}
,
{
"is_managed" : "false",
"native_address" : "0x55cdd49e8159",
"native_offset" : "0x00000"
}
,
{
"is_managed" : "false",
"native_address" : "0x55cdd49e87f0",
"native_offset" : "0x00000"
}
,
{
"is_managed" : "false",
"native_address" : "0x55cdd49d954d",
"native_offset" : "0x00000"
}
,
{
"is_managed" : "false",
"native_address" : "0x55cdd4971223",
"native_offset" : "0x00000"
}
,
{
"is_managed" : "true",
"guid" : "533173D2-4DAE-4608-99D2-B10975534BB0",
"token" : "0x00000",
"native_offset" : "0x0",
"filename" : "mscorlib.dll",
"sizeofimage" : "0x472000",
"timestamp" : "0x99dbfea7",
"il_offset" : "0x00000"
}

]
},
{
"is_managed" : false,
"offset_free_hash" : "0x0",
"offset_rich_hash" : "0x0",
"crashed" : false,
"native_thread_id" : "0x7efdec9bd700",
"thread_info_addr" : "0x7efda00008d0",
"thread_name" : "Thread Pool Wor",
"ctx" : {
"IP" : "0x7efdf7767618",
"SP" : "0x7efdec9bcc70",
"BP" : "0x55cdd4e01d88"
},
"unmanaged_frames" : [
{
"is_managed" : "false",
"native_address" : "0x55cdd47ec4c9",
"native_offset" : "0x00000"
}
,
{
"is_managed" : "false",
"native_address" : "0x55cdd49d2319",
"native_offset" : "0x00000"
}
,
{
"is_managed" : "false",
"native_address" : "0x55cdd49d3655",
"native_offset" : "0x00000"
}
,
{
"is_managed" : "false",
"native_address" : "0x55cdd49dc6c7",
"native_offset" : "0x00000"
}
,
{
"is_managed" : "false",
"native_address" : "0x55cdd48415b5",
"native_offset" : "0x00000"
}
,
{
"is_managed" : "false",
"native_address" : "0x7efdf77693c0",
"native_offset" : "0x00000"
}
,
{
"is_managed" : "false",
"native_address" : "0x7efdf7767618",
"native_offset" : "0x00000"
}
,
{
"is_managed" : "false",
"native_address" : "0x7efdf7767743",
"native_offset" : "0x00000"
}
,
{
"is_managed" : "false",
"native_address" : "0x55cdd4a2d7bd",
"native_offset" : "0x00000"
}
,
{
"is_managed" : "false",
"native_address" : "0x55cdd49dbfdc",
"native_offset" : "0x00000"
}
,
{
"is_managed" : "false",
"native_address" : "0x7efdf775d609",
"native_offset" : "0x00000"
}
,
{
"is_managed" : "false",
"native_address" : "0x7efdf7337293",
"native_offset" : "0x00000"
}

]
},
{
"is_managed" : false,
"offset_free_hash" : "0x0",
"offset_rich_hash" : "0x0",
"crashed" : false,
"native_thread_id" : "0x7efdef7ec700",
"thread_info_addr" : "0x7efde4123dd0",
"thread_name" : "Thread Pool Wor",
"ctx" : {
"IP" : "0x7efdf7767618",
"SP" : "0x7efdef7ebc70",
"BP" : "0x55cdd4e01d88"
},
"unmanaged_frames" : [
{
"is_managed" : "false",
"native_address" : "0x55cdd47ec4c9",
"native_offset" : "0x00000"
}
,
{
"is_managed" : "false",
"native_address" : "0x55cdd49d2319",
"native_offset" : "0x00000"
}
,
{
"is_managed" : "false",
"native_address" : "0x55cdd49d3655",
"native_offset" : "0x00000"
}
,
{
"is_managed" : "false",
"native_address" : "0x55cdd49dc6c7",
"native_offset" : "0x00000"
}
,
{
"is_managed" : "false",
"native_address" : "0x55cdd48415b5",
"native_offset" : "0x00000"
}
,
{
"is_managed" : "false",
"native_address" : "0x7efdf77693c0",
"native_offset" : "0x00000"
}
,
{
"is_managed" : "false",
"native_address" : "0x7efdf7767618",
"native_offset" : "0x00000"
}
,
{
"is_managed" : "false",
"native_address" : "0x7efdf7767743",
"native_offset" : "0x00000"
}
,
{
"is_managed" : "false",
"native_address" : "0x55cdd4a2d7bd",
"native_offset" : "0x00000"
}
,
{
"is_managed" : "false",
"native_address" : "0x55cdd49dbfdc",
"native_offset" : "0x00000"
}
,
{
"is_managed" : "false",
"native_address" : "0x7efdf775d609",
"native_offset" : "0x00000"
}
,
{
"is_managed" : "false",
"native_address" : "0x7efdf7337293",
"native_offset" : "0x00000"
}

]
},
{
"is_managed" : false,
"offset_free_hash" : "0x0",
"offset_rich_hash" : "0x0",
"crashed" : false,
"native_thread_id" : "0x7efdedd0a700",
"thread_info_addr" : "0x7efdb80008d0",
"thread_name" : "Thread Pool Wor",
"ctx" : {
"IP" : "0x7efdf7767618",
"SP" : "0x7efdedd09c70",
"BP" : "0x55cdd4e01d88"
},
"unmanaged_frames" : [
{
"is_managed" : "false",
"native_address" : "0x55cdd47ec4c9",
"native_offset" : "0x00000"
}
,
{
"is_managed" : "false",
"native_address" : "0x55cdd49d2319",
"native_offset" : "0x00000"
}
,
{
"is_managed" : "false",
"native_address" : "0x55cdd49d3655",
"native_offset" : "0x00000"
}
,
{
"is_managed" : "false",
"native_address" : "0x55cdd49dc6c7",
"native_offset" : "0x00000"
}
,
{
"is_managed" : "false",
"native_address" : "0x55cdd48415b5",
"native_offset" : "0x00000"
}
,
{
"is_managed" : "false",
"native_address" : "0x7efdf77693c0",
"native_offset" : "0x00000"
}
,
{
"is_managed" : "false",
"native_address" : "0x7efdf7767618",
"native_offset" : "0x00000"
}
,
{
"is_managed" : "false",
"native_address" : "0x7efdf7767743",
"native_offset" : "0x00000"
}
,
{
"is_managed" : "false",
"native_address" : "0x55cdd4a2d7bd",
"native_offset" : "0x00000"
}
,
{
"is_managed" : "false",
"native_address" : "0x55cdd49dbfdc",
"native_offset" : "0x00000"
}
,
{
"is_managed" : "false",
"native_address" : "0x7efdf775d609",
"native_offset" : "0x00000"
}
,
{
"is_managed" : "false",
"native_address" : "0x7efdf7337293",
"native_offset" : "0x00000"
}

]
},
{
"is_managed" : false,
"offset_free_hash" : "0x0",
"offset_rich_hash" : "0x0",
"crashed" : false,
"native_thread_id" : "0x7efdeef75700",
"thread_info_addr" : "0x7efdd00d1570",
"thread_name" : "mono",
"ctx" : {
"IP" : "0x7efdf77647b1",
"SP" : "0x7efdeef74b80",
"BP" : "0x55cdd4e10860"
},
"unmanaged_frames" : [
{
"is_managed" : "false",
"native_address" : "0x55cdd47ec4c9",
"native_offset" : "0x00000"
}
,
{
"is_managed" : "false",
"native_address" : "0x55cdd49d2319",
"native_offset" : "0x00000"
}
,
{
"is_managed" : "false",
"native_address" : "0x55cdd49d3655",
"native_offset" : "0x00000"
}
,
{
"is_managed" : "false",
"native_address" : "0x55cdd49dc6c7",
"native_offset" : "0x00000"
}
,
{
"is_managed" : "false",
"native_address" : "0x55cdd48415b5",
"native_offset" : "0x00000"
}
,
{
"is_managed" : "false",
"native_address" : "0x7efdf77693c0",
"native_offset" : "0x00000"
}
,
{
"is_managed" : "false",
"native_address" : "0x7efdf77647b1",
"native_offset" : "0x00000"
}
,
{
"is_managed" : "false",
"native_address" : "0x55cdd4a87e9b",
"native_offset" : "0x00000"
}
,
{
"is_managed" : "false",
"native_address" : "0x55cdd4a92948",
"native_offset" : "0x00000"
}
,
{
"is_managed" : "false",
"native_address" : "0x55cdd4a2e542",
"native_offset" : "0x00000"
}
,
{
"is_managed" : "false",
"native_address" : "0x55cdd49dbfdc",
"native_offset" : "0x00000"
}
,
{
"is_managed" : "false",
"native_address" : "0x7efdf775d609",
"native_offset" : "0x00000"
}
,
{
"is_managed" : "false",
"native_address" : "0x7efdf7337293",
"native_offset" : "0x00000"
}

]
},
{
"is_managed" : false,
"offset_free_hash" : "0x0",
"offset_rich_hash" : "0x0",
"crashed" : false,
"native_thread_id" : "0x7efdee472700",
"thread_info_addr" : "0x7efdc80008d0",
"thread_name" : "Thread Pool I/O",
"ctx" : {
"IP" : "0x7efdf732aaff",
"SP" : "0x7efdee471ca0",
"BP" : "0x7efdee471cd0"
},
"unmanaged_frames" : [
{
"is_managed" : "false",
"native_address" : "0x55cdd47ec4c9",
"native_offset" : "0x00000"
}
,
{
"is_managed" : "false",
"native_address" : "0x55cdd49d2319",
"native_offset" : "0x00000"
}
,
{
"is_managed" : "false",
"native_address" : "0x55cdd49d3655",
"native_offset" : "0x00000"
}
,
{
"is_managed" : "false",
"native_address" : "0x55cdd49dc6c7",
"native_offset" : "0x00000"
}
,
{
"is_managed" : "false",
"native_address" : "0x55cdd48415b5",
"native_offset" : "0x00000"
}
,
{
"is_managed" : "false",
"native_address" : "0x7efdf77693c0",
"native_offset" : "0x00000"
}
,
{
"is_managed" : "false",
"native_address" : "0x7efdf732aaff",
"native_offset" : "0x00000"
}
,
{
"is_managed" : "false",
"native_address" : "0x55cdd49df308",
"native_offset" : "0x00000"
}
,
{
"is_managed" : "false",
"native_address" : "0x55cdd49e02f8",
"native_offset" : "0x00000"
}
,
{
"is_managed" : "false",
"native_address" : "0x55cdd49dbfdc",
"native_offset" : "0x00000"
}
,
{
"is_managed" : "false",
"native_address" : "0x7efdf775d609",
"native_offset" : "0x00000"
}
,
{
"is_managed" : "false",
"native_address" : "0x7efdf7337293",
"native_offset" : "0x00000"
}

]
},
{
"is_managed" : true,
"offset_free_hash" : "0xae0302b32",
"offset_rich_hash" : "0xae0302e29",
"crashed" : false,
"native_thread_id" : "0x7efdee070700",
"thread_info_addr" : "0x7efdc4000b60",
"thread_name" : "RequestBuilder ",
"ctx" : {
"IP" : "0x7efdf7764376",
"SP" : "0x7efdee06f260",
"BP" : "0x55cdd53c5320"
},
"managed_frames" : [
{
"is_managed" : "false",
"native_address" : "unregistered"
}
,
{
"is_managed" : "true",
"guid" : "533173D2-4DAE-4608-99D2-B10975534BB0",
"token" : "0x00000",
"native_offset" : "0x0",
"filename" : "mscorlib.dll",
"sizeofimage" : "0x472000",
"timestamp" : "0x99dbfea7",
"il_offset" : "0x00000"
}
,
{
"is_managed" : "true",
"guid" : "533173D2-4DAE-4608-99D2-B10975534BB0",
"token" : "0x6001efc",
"native_offset" : "0x0",
"filename" : "mscorlib.dll",
"sizeofimage" : "0x472000",
"timestamp" : "0x99dbfea7",
"il_offset" : "0x0002f"
}
,
{
"is_managed" : "true",
"guid" : "533173D2-4DAE-4608-99D2-B10975534BB0",
"token" : "0x6001eef",
"native_offset" : "0x0",
"filename" : "mscorlib.dll",
"sizeofimage" : "0x472000",
"timestamp" : "0x99dbfea7",
"il_offset" : "0x0000e"
}
,
{
"is_managed" : "true",
"guid" : "533173D2-4DAE-4608-99D2-B10975534BB0",
"token" : "0x6001ef1",
"native_offset" : "0x0",
"filename" : "mscorlib.dll",
"sizeofimage" : "0x472000",
"timestamp" : "0x99dbfea7",
"il_offset" : "0x00000"
}
,
{
"is_managed" : "true",
"guid" : "533173D2-4DAE-4608-99D2-B10975534BB0",
"token" : "0x6001e41",
"native_offset" : "0x0",
"filename" : "mscorlib.dll",
"sizeofimage" : "0x472000",
"timestamp" : "0x99dbfea7",
"il_offset" : "0x0001d"
}
,
{
"is_managed" : "true",
"guid" : "533173D2-4DAE-4608-99D2-B10975534BB0",
"token" : "0x6001e40",
"native_offset" : "0x0",
"filename" : "mscorlib.dll",
"sizeofimage" : "0x472000",
"timestamp" : "0x99dbfea7",
"il_offset" : "0x000d9"
}
,
{
"is_managed" : "true",
"guid" : "9C6E2CB7-DDD8-473F-A420-642DDCF7CE48",
"token" : "0x6003b86",
"native_offset" : "0x0",
"filename" : "System.dll",
"sizeofimage" : "0x286000",
"timestamp" : "0xe193f384",
"il_offset" : "0x00067"
}
,
{
"is_managed" : "true",
"guid" : "9C6E2CB7-DDD8-473F-A420-642DDCF7CE48",
"token" : "0x600427a",
"native_offset" : "0x0",
"filename" : "System.dll",
"sizeofimage" : "0x286000",
"timestamp" : "0xe193f384",
"il_offset" : "0x0004d"
}
,
{
"is_managed" : "true",
"guid" : "F5C26A75-6012-4A5F-9B72-55EB2A34A9A9",
"token" : "0x6002267",
"native_offset" : "0x0",
"filename" : "Microsoft.Build.dll",
"sizeofimage" : "0x1e6000",
"timestamp" : "0xd74c9315",
"il_offset" : "0x0002e"
}
,
{
"is_managed" : "true",
"guid" : "533173D2-4DAE-4608-99D2-B10975534BB0",
"token" : "0x6001f1c",
"native_offset" : "0x0",
"filename" : "mscorlib.dll",
"sizeofimage" : "0x472000",
"timestamp" : "0x99dbfea7",
"il_offset" : "0x00014"
}
,
{
"is_managed" : "true",
"guid" : "533173D2-4DAE-4608-99D2-B10975534BB0",
"token" : "0x6001ec4",
"native_offset" : "0x0",
"filename" : "mscorlib.dll",
"sizeofimage" : "0x472000",
"timestamp" : "0x99dbfea7",
"il_offset" : "0x00071"
}
,
{
"is_managed" : "true",
"guid" : "533173D2-4DAE-4608-99D2-B10975534BB0",
"token" : "0x6001ec2",
"native_offset" : "0x0",
"filename" : "mscorlib.dll",
"sizeofimage" : "0x472000",
"timestamp" : "0x99dbfea7",
"il_offset" : "0x00000"
}
,
{
"is_managed" : "true",
"guid" : "533173D2-4DAE-4608-99D2-B10975534BB0",
"token" : "0x6001ec1",
"native_offset" : "0x0",
"filename" : "mscorlib.dll",
"sizeofimage" : "0x472000",
"timestamp" : "0x99dbfea7",
"il_offset" : "0x0002b"
}
,
{
"is_managed" : "true",
"guid" : "533173D2-4DAE-4608-99D2-B10975534BB0",
"token" : "0x6001f1e",
"native_offset" : "0x0",
"filename" : "mscorlib.dll",
"sizeofimage" : "0x472000",
"timestamp" : "0x99dbfea7",
"il_offset" : "0x00008"
}
,
{
"is_managed" : "true",
"guid" : "533173D2-4DAE-4608-99D2-B10975534BB0",
"token" : "0x00000",
"native_offset" : "0x0",
"filename" : "mscorlib.dll",
"sizeofimage" : "0x472000",
"timestamp" : "0x99dbfea7",
"il_offset" : "0x0002a"
}

],
"unmanaged_frames" : [
{
"is_managed" : "false",
"native_address" : "0x55cdd47ec4c9",
"native_offset" : "0x00000"
}
,
{
"is_managed" : "false",
"native_address" : "0x55cdd49d2319",
"native_offset" : "0x00000"
}
,
{
"is_managed" : "false",
"native_address" : "0x55cdd49d3655",
"native_offset" : "0x00000"
}
,
{
"is_managed" : "false",
"native_address" : "0x55cdd49dc6c7",
"native_offset" : "0x00000"
}
,
{
"is_managed" : "false",
"native_address" : "0x55cdd48415b5",
"native_offset" : "0x00000"
}
,
{
"is_managed" : "false",
"native_address" : "0x7efdf77693c0",
"native_offset" : "0x00000"
}
,
{
"is_managed" : "false",
"native_address" : "0x7efdf7764376",
"native_offset" : "0x00000"
}
,
{
"is_managed" : "false",
"native_address" : "0x55cdd4a87efd",
"native_offset" : "0x00000"
}
,
{
"is_managed" : "false",
"native_address" : "0x55cdd49e6aec",
"native_offset" : "0x00000"
}
,
{
"is_managed" : "false",
"native_address" : "0x55cdd49e80ff",
"native_offset" : "0x00000"
}
,
{
"is_managed" : "false",
"native_address" : "0x55cdd4a219cd",
"native_offset" : "0x00000"
}
,
{
"is_managed" : "false",
"native_address" : "0x55cdd496f0d6",
"native_offset" : "0x00000"
}
,
{
"is_managed" : "true",
"guid" : "533173D2-4DAE-4608-99D2-B10975534BB0",
"token" : "0x00000",
"native_offset" : "0x0",
"filename" : "mscorlib.dll",
"sizeofimage" : "0x472000",
"timestamp" : "0x99dbfea7",
"il_offset" : "0x00000"
}

]
},
{
"is_managed" : true,
"offset_free_hash" : "0xc93515c59",
"offset_rich_hash" : "0xc93515fb7",
"crashed" : false,
"native_thread_id" : "0x7efdecbbe700",
"thread_info_addr" : "0x7efdac0008d0",
"thread_name" : "Thread Pool Wor",
"ctx" : {
"IP" : "0x7efdf7764376",
"SP" : "0x7efdecbbc940",
"BP" : "0x55cdd53c9df0"
},
"managed_frames" : [
{
"is_managed" : "false",
"native_address" : "unregistered"
}
,
{
"is_managed" : "true",
"guid" : "533173D2-4DAE-4608-99D2-B10975534BB0",
"token" : "0x00000",
"native_offset" : "0x0",
"filename" : "mscorlib.dll",
"sizeofimage" : "0x472000",
"timestamp" : "0x99dbfea7",
"il_offset" : "0x00000"
}
,
{
"is_managed" : "true",
"guid" : "533173D2-4DAE-4608-99D2-B10975534BB0",
"token" : "0x6002051",
"native_offset" : "0x0",
"filename" : "mscorlib.dll",
"sizeofimage" : "0x472000",
"timestamp" : "0x99dbfea7",
"il_offset" : "0x00044"
}
,
{
"is_managed" : "true",
"guid" : "533173D2-4DAE-4608-99D2-B10975534BB0",
"token" : "0x600203d",
"native_offset" : "0x0",
"filename" : "mscorlib.dll",
"sizeofimage" : "0x472000",
"timestamp" : "0x99dbfea7",
"il_offset" : "0x00014"
}
,
{
"is_managed" : "true",
"guid" : "533173D2-4DAE-4608-99D2-B10975534BB0",
"token" : "0x600203c",
"native_offset" : "0x0",
"filename" : "mscorlib.dll",
"sizeofimage" : "0x472000",
"timestamp" : "0x99dbfea7",
"il_offset" : "0x00000"
}
,
{
"is_managed" : "true",
"guid" : "533173D2-4DAE-4608-99D2-B10975534BB0",
"token" : "0x6002037",
"native_offset" : "0x0",
"filename" : "mscorlib.dll",
"sizeofimage" : "0x472000",
"timestamp" : "0x99dbfea7",
"il_offset" : "0x00019"
}
,
{
"is_managed" : "true",
"guid" : "533173D2-4DAE-4608-99D2-B10975534BB0",
"token" : "0x6002039",
"native_offset" : "0x0",
"filename" : "mscorlib.dll",
"sizeofimage" : "0x472000",
"timestamp" : "0x99dbfea7",
"il_offset" : "0x00000"
}
,
{
"is_managed" : "true",
"guid" : "F5C26A75-6012-4A5F-9B72-55EB2A34A9A9",
"token" : "0x6000cbd",
"native_offset" : "0x0",
"filename" : "Microsoft.Build.dll",
"sizeofimage" : "0x1e6000",
"timestamp" : "0xd74c9315",
"il_offset" : "0x00053"
}
,
{
"is_managed" : "true",
"guid" : "F5C26A75-6012-4A5F-9B72-55EB2A34A9A9",
"token" : "0x6000bd2",
"native_offset" : "0x0",
"filename" : "Microsoft.Build.dll",
"sizeofimage" : "0x1e6000",
"timestamp" : "0xd74c9315",
"il_offset" : "0x00008"
}
,
{
"is_managed" : "true",
"guid" : "F9C97B26-2149-4D4F-A382-A0BDDF871DA8",
"token" : "0x60000a0",
"native_offset" : "0x0",
"filename" : "MonoDevelop.MSBuildBuilder.exe",
"sizeofimage" : "0x14000",
"timestamp" : "0xde5f999a",
"il_offset" : "0x00065"
}
,
{
"is_managed" : "true",
"guid" : "F9C97B26-2149-4D4F-A382-A0BDDF871DA8",
"token" : "0x6000178",
"native_offset" : "0x0",
"filename" : "MonoDevelop.MSBuildBuilder.exe",
"sizeofimage" : "0x14000",
"timestamp" : "0xde5f999a",
"il_offset" : "0x0012f"
}
,
{
"is_managed" : "true",
"guid" : "F9C97B26-2149-4D4F-A382-A0BDDF871DA8",
"token" : "0x6000085",
"native_offset" : "0x0",
"filename" : "MonoDevelop.MSBuildBuilder.exe",
"sizeofimage" : "0x14000",
"timestamp" : "0xde5f999a",
"il_offset" : "0x0001c"
}
,
{
"is_managed" : "true",
"guid" : "533173D2-4DAE-4608-99D2-B10975534BB0",
"token" : "0x6001f1c",
"native_offset" : "0x0",
"filename" : "mscorlib.dll",
"sizeofimage" : "0x472000",
"timestamp" : "0x99dbfea7",
"il_offset" : "0x00014"
}
,
{
"is_managed" : "true",
"guid" : "533173D2-4DAE-4608-99D2-B10975534BB0",
"token" : "0x6001ec4",
"native_offset" : "0x0",
"filename" : "mscorlib.dll",
"sizeofimage" : "0x472000",
"timestamp" : "0x99dbfea7",
"il_offset" : "0x00071"
}
,
{
"is_managed" : "true",
"guid" : "533173D2-4DAE-4608-99D2-B10975534BB0",
"token" : "0x6001ec2",
"native_offset" : "0x0",
"filename" : "mscorlib.dll",
"sizeofimage" : "0x472000",
"timestamp" : "0x99dbfea7",
"il_offset" : "0x00000"
}
,
{
"is_managed" : "true",
"guid" : "533173D2-4DAE-4608-99D2-B10975534BB0",
"token" : "0x6001ec1",
"native_offset" : "0x0",
"filename" : "mscorlib.dll",
"sizeofimage" : "0x472000",
"timestamp" : "0x99dbfea7",
"il_offset" : "0x0002b"
}
,
{
"is_managed" : "true",
"guid" : "533173D2-4DAE-4608-99D2-B10975534BB0",
"token" : "0x6001f1e",
"native_offset" : "0x0",
"filename" : "mscorlib.dll",
"sizeofimage" : "0x472000",
"timestamp" : "0x99dbfea7",
"il_offset" : "0x00008"
}
,
{
"is_managed" : "true",
"guid" : "533173D2-4DAE-4608-99D2-B10975534BB0",
"token" : "0x00000",
"native_offset" : "0x0",
"filename" : "mscorlib.dll",
"sizeofimage" : "0x472000",
"timestamp" : "0x99dbfea7",
"il_offset" : "0x0002a"
}

],
"unmanaged_frames" : [
{
"is_managed" : "false",
"native_address" : "0x55cdd47ec4c9",
"native_offset" : "0x00000"
}
,
{
"is_managed" : "false",
"native_address" : "0x55cdd49d2319",
"native_offset" : "0x00000"
}
,
{
"is_managed" : "false",
"native_address" : "0x55cdd49d3655",
"native_offset" : "0x00000"
}
,
{
"is_managed" : "false",
"native_address" : "0x55cdd49dc6c7",
"native_offset" : "0x00000"
}
,
{
"is_managed" : "false",
"native_address" : "0x55cdd48415b5",
"native_offset" : "0x00000"
}
,
{
"is_managed" : "false",
"native_address" : "0x7efdf77693c0",
"native_offset" : "0x00000"
}
,
{
"is_managed" : "false",
"native_address" : "0x7efdf7764376",
"native_offset" : "0x00000"
}
,
{
"is_managed" : "false",
"native_address" : "0x55cdd4a87efd",
"native_offset" : "0x00000"
}
,
{
"is_managed" : "false",
"native_address" : "0x55cdd49e6aec",
"native_offset" : "0x00000"
}
,
{
"is_managed" : "false",
"native_address" : "0x55cdd49e80ff",
"native_offset" : "0x00000"
}
,
{
"is_managed" : "false",
"native_address" : "0x55cdd49e87f0",
"native_offset" : "0x00000"
}
,
{
"is_managed" : "false",
"native_address" : "0x55cdd49d954d",
"native_offset" : "0x00000"
}
,
{
"is_managed" : "false",
"native_address" : "0x55cdd4971223",
"native_offset" : "0x00000"
}
,
{
"is_managed" : "true",
"guid" : "533173D2-4DAE-4608-99D2-B10975534BB0",
"token" : "0x00000",
"native_offset" : "0x0",
"filename" : "mscorlib.dll",
"sizeofimage" : "0x472000",
"timestamp" : "0x99dbfea7",
"il_offset" : "0x00000"
}

]
},
{
"is_managed" : false,
"offset_free_hash" : "0x0",
"offset_rich_hash" : "0x0",
"crashed" : false,
"native_thread_id" : "0x7efdef9ed700",
"thread_info_addr" : "0x7efde00008d0",
"thread_name" : "Thread Pool Wor",
"ctx" : {
"IP" : "0x7efdf7767618",
"SP" : "0x7efdef9ecc70",
"BP" : "0x55cdd4e01d88"
},
"unmanaged_frames" : [
{
"is_managed" : "false",
"native_address" : "0x55cdd47ec4c9",
"native_offset" : "0x00000"
}
,
{
"is_managed" : "false",
"native_address" : "0x55cdd49d2319",
"native_offset" : "0x00000"
}
,
{
"is_managed" : "false",
"native_address" : "0x55cdd49d3655",
"native_offset" : "0x00000"
}
,
{
"is_managed" : "false",
"native_address" : "0x55cdd49dc6c7",
"native_offset" : "0x00000"
}
,
{
"is_managed" : "false",
"native_address" : "0x55cdd48415b5",
"native_offset" : "0x00000"
}
,
{
"is_managed" : "false",
"native_address" : "0x7efdf77693c0",
"native_offset" : "0x00000"
}
,
{
"is_managed" : "false",
"native_address" : "0x7efdf7767618",
"native_offset" : "0x00000"
}
,
{
"is_managed" : "false",
"native_address" : "0x7efdf7767743",
"native_offset" : "0x00000"
}
,
{
"is_managed" : "false",
"native_address" : "0x55cdd4a2d7bd",
"native_offset" : "0x00000"
}
,
{
"is_managed" : "false",
"native_address" : "0x55cdd49dbfdc",
"native_offset" : "0x00000"
}
,
{
"is_managed" : "false",
"native_address" : "0x7efdf775d609",
"native_offset" : "0x00000"
}
,
{
"is_managed" : "false",
"native_address" : "0x7efdf7337293",
"native_offset" : "0x00000"
}

]
},
{
"is_managed" : true,
"offset_free_hash" : "0x233fe1824b",
"offset_rich_hash" : "0x233fe197b5",
"crashed" : true,
"native_thread_id" : "0x7efdedb09700",
"thread_info_addr" : "0x7efdbc001df0",
"thread_name" : "RequestBuilder ",
"ctx" : {
"IP" : "0x55cdd4919cb8",
"SP" : "0x7efdedb06320",
"BP" : "0x2a220e06"
},
"managed_frames" : [
{
"is_managed" : "false",
"native_address" : "unregistered"
}
,
{
"is_managed" : "true",
"guid" : "533173D2-4DAE-4608-99D2-B10975534BB0",
"token" : "0x00000",
"native_offset" : "0x0",
"filename" : "mscorlib.dll",
"sizeofimage" : "0x472000",
"timestamp" : "0x99dbfea7",
"il_offset" : "0x00000"
}
,
{
"is_managed" : "true",
"guid" : "533173D2-4DAE-4608-99D2-B10975534BB0",
"token" : "0x6004ba7",
"native_offset" : "0x0",
"filename" : "mscorlib.dll",
"sizeofimage" : "0x472000",
"timestamp" : "0x99dbfea7",
"il_offset" : "0x00000"
}
,
{
"is_managed" : "true",
"guid" : "533173D2-4DAE-4608-99D2-B10975534BB0",
"token" : "0x6004c37",
"native_offset" : "0x0",
"filename" : "mscorlib.dll",
"sizeofimage" : "0x472000",
"timestamp" : "0x99dbfea7",
"il_offset" : "0x00000"
}
,
{
"is_managed" : "true",
"guid" : "D48AABF9-59CD-4142-A4CF-26CFEBA00ED2",
"token" : "0x6000014",
"native_offset" : "0x0",
"filename" : "Microsoft.NET.Build.Extensions.Tasks.dll",
"sizeofimage" : "0x1c000",
"timestamp" : "0x902f638b",
"il_offset" : "0x00021"
}
,
{
"is_managed" : "true",
"guid" : "D48AABF9-59CD-4142-A4CF-26CFEBA00ED2",
"token" : "0x6000012",
"native_offset" : "0x0",
"filename" : "Microsoft.NET.Build.Extensions.Tasks.dll",
"sizeofimage" : "0x1c000",
"timestamp" : "0x902f638b",
"il_offset" : "0x00021"
}
,
{
"is_managed" : "true",
"guid" : "D48AABF9-59CD-4142-A4CF-26CFEBA00ED2",
"token" : "0x6000011",
"native_offset" : "0x0",
"filename" : "Microsoft.NET.Build.Extensions.Tasks.dll",
"sizeofimage" : "0x1c000",
"timestamp" : "0x902f638b",
"il_offset" : "0x00000"
}
,
{
"is_managed" : "true",
"guid" : "D48AABF9-59CD-4142-A4CF-26CFEBA00ED2",
"token" : "0x6000050",
"native_offset" : "0x0",
"filename" : "Microsoft.NET.Build.Extensions.Tasks.dll",
"sizeofimage" : "0x1c000",
"timestamp" : "0x902f638b",
"il_offset" : "0x00000"
}
,
{
"is_managed" : "true",
"guid" : "F5C26A75-6012-4A5F-9B72-55EB2A34A9A9",
"token" : "0x60014e6",
"native_offset" : "0x0",
"filename" : "Microsoft.Build.dll",
"sizeofimage" : "0x1e6000",
"timestamp" : "0xd74c9315",
"il_offset" : "0x00029"
}
,
{
"is_managed" : "true",
"guid" : "F5C26A75-6012-4A5F-9B72-55EB2A34A9A9",
"token" : "0x6002296",
"native_offset" : "0x0",
"filename" : "Microsoft.Build.dll",
"sizeofimage" : "0x1e6000",
"timestamp" : "0xd74c9315",
"il_offset" : "0x002a9"
}
,
{
"is_managed" : "true",
"guid" : "533173D2-4DAE-4608-99D2-B10975534BB0",
"token" : "0x6004619",
"native_offset" : "0x0",
"filename" : "mscorlib.dll",
"sizeofimage" : "0x472000",
"timestamp" : "0x99dbfea7",
"il_offset" : "0x0002c"
}
,
{
"is_managed" : "true",
"guid" : "F5C26A75-6012-4A5F-9B72-55EB2A34A9A9",
"token" : "0x6001387",
"native_offset" : "0x0",
"filename" : "Microsoft.Build.dll",
"sizeofimage" : "0x1e6000",
"timestamp" : "0xd74c9315",
"il_offset" : "0x00046"
}
,
{
"is_managed" : "true",
"guid" : "F5C26A75-6012-4A5F-9B72-55EB2A34A9A9",
"token" : "0x6002291",
"native_offset" : "0x0",
"filename" : "Microsoft.Build.dll",
"sizeofimage" : "0x1e6000",
"timestamp" : "0xd74c9315",
"il_offset" : "0x00065"
}
,
{
"is_managed" : "true",
"guid" : "533173D2-4DAE-4608-99D2-B10975534BB0",
"token" : "0x6004619",
"native_offset" : "0x0",
"filename" : "mscorlib.dll",
"sizeofimage" : "0x472000",
"timestamp" : "0x99dbfea7",
"il_offset" : "0x0002c"
}
,
{
"is_managed" : "true",
"guid" : "F5C26A75-6012-4A5F-9B72-55EB2A34A9A9",
"token" : "0x6001385",
"native_offset" : "0x0",
"filename" : "Microsoft.Build.dll",
"sizeofimage" : "0x1e6000",
"timestamp" : "0xd74c9315",
"il_offset" : "0x00046"
}
,
{
"is_managed" : "true",
"guid" : "F5C26A75-6012-4A5F-9B72-55EB2A34A9A9",
"token" : "0x600228d",
"native_offset" : "0x0",
"filename" : "Microsoft.Build.dll",
"sizeofimage" : "0x1e6000",
"timestamp" : "0xd74c9315",
"il_offset" : "0x001b8"
}
,
{
"is_managed" : "true",
"guid" : "533173D2-4DAE-4608-99D2-B10975534BB0",
"token" : "0x6004619",
"native_offset" : "0x0",
"filename" : "mscorlib.dll",
"sizeofimage" : "0x472000",
"timestamp" : "0x99dbfea7",
"il_offset" : "0x0002c"
}
,
{
"is_managed" : "true",
"guid" : "F5C26A75-6012-4A5F-9B72-55EB2A34A9A9",
"token" : "0x6001380",
"native_offset" : "0x0",
"filename" : "Microsoft.Build.dll",
"sizeofimage" : "0x1e6000",
"timestamp" : "0xd74c9315",
"il_offset" : "0x0003d"
}
,
{
"is_managed" : "true",
"guid" : "F5C26A75-6012-4A5F-9B72-55EB2A34A9A9",
"token" : "0x600228b",
"native_offset" : "0x0",
"filename" : "Microsoft.Build.dll",
"sizeofimage" : "0x1e6000",
"timestamp" : "0xd74c9315",
"il_offset" : "0x001a9"
}
,
{
"is_managed" : "true",
"guid" : "533173D2-4DAE-4608-99D2-B10975534BB0",
"token" : "0x6004619",
"native_offset" : "0x0",
"filename" : "mscorlib.dll",
"sizeofimage" : "0x472000",
"timestamp" : "0x99dbfea7",
"il_offset" : "0x0002c"
}
,
{
"is_managed" : "true",
"guid" : "F5C26A75-6012-4A5F-9B72-55EB2A34A9A9",
"token" : "0x600137f",
"native_offset" : "0x0",
"filename" : "Microsoft.Build.dll",
"sizeofimage" : "0x1e6000",
"timestamp" : "0xd74c9315",
"il_offset" : "0x0002c"
}
,
{
"is_managed" : "true",
"guid" : "F5C26A75-6012-4A5F-9B72-55EB2A34A9A9",
"token" : "0x6002289",
"native_offset" : "0x0",
"filename" : "Microsoft.Build.dll",
"sizeofimage" : "0x1e6000",
"timestamp" : "0xd74c9315",
"il_offset" : "0x0018b"
}
,
{
"is_managed" : "true",
"guid" : "533173D2-4DAE-4608-99D2-B10975534BB0",
"token" : "0x6004619",
"native_offset" : "0x0",
"filename" : "mscorlib.dll",
"sizeofimage" : "0x472000",
"timestamp" : "0x99dbfea7",
"il_offset" : "0x0002c"
}
,
{
"is_managed" : "true",
"guid" : "F5C26A75-6012-4A5F-9B72-55EB2A34A9A9",
"token" : "0x600137a",
"native_offset" : "0x0",
"filename" : "Microsoft.Build.dll",
"sizeofimage" : "0x1e6000",
"timestamp" : "0xd74c9315",
"il_offset" : "0x00061"
}
,
{
"is_managed" : "true",
"guid" : "F5C26A75-6012-4A5F-9B72-55EB2A34A9A9",
"token" : "0x6002287",
"native_offset" : "0x0",
"filename" : "Microsoft.Build.dll",
"sizeofimage" : "0x1e6000",
"timestamp" : "0xd74c9315",
"il_offset" : "0x0005f"
}
,
{
"is_managed" : "true",
"guid" : "533173D2-4DAE-4608-99D2-B10975534BB0",
"token" : "0x6004619",
"native_offset" : "0x0",
"filename" : "mscorlib.dll",
"sizeofimage" : "0x472000",
"timestamp" : "0x99dbfea7",
"il_offset" : "0x0002c"
}
,
{
"is_managed" : "true",
"guid" : "F5C26A75-6012-4A5F-9B72-55EB2A34A9A9",
"token" : "0x6001354",
"native_offset" : "0x0",
"filename" : "Microsoft.Build.dll",
"sizeofimage" : "0x1e6000",
"timestamp" : "0xd74c9315",
"il_offset" : "0x00046"
}
,
{
"is_managed" : "true",
"guid" : "F5C26A75-6012-4A5F-9B72-55EB2A34A9A9",
"token" : "0x6002285",
"native_offset" : "0x0",
"filename" : "Microsoft.Build.dll",
"sizeofimage" : "0x1e6000",
"timestamp" : "0xd74c9315",
"il_offset" : "0x002b7"
}
,
{
"is_managed" : "true",
"guid" : "533173D2-4DAE-4608-99D2-B10975534BB0",
"token" : "0x600460e",
"native_offset" : "0x0",
"filename" : "mscorlib.dll",
"sizeofimage" : "0x472000",
"timestamp" : "0x99dbfea7",
"il_offset" : "0x0002c"
}
,
{
"is_managed" : "true",
"guid" : "F5C26A75-6012-4A5F-9B72-55EB2A34A9A9",
"token" : "0x600134d",
"native_offset" : "0x0",
"filename" : "Microsoft.Build.dll",
"sizeofimage" : "0x1e6000",
"timestamp" : "0xd74c9315",
"il_offset" : "0x0003d"
}
,
{
"is_managed" : "true",
"guid" : "F5C26A75-6012-4A5F-9B72-55EB2A34A9A9",
"token" : "0x600227f",
"native_offset" : "0x0",
"filename" : "Microsoft.Build.dll",
"sizeofimage" : "0x1e6000",
"timestamp" : "0xd74c9315",
"il_offset" : "0x00429"
}
,
{
"is_managed" : "true",
"guid" : "533173D2-4DAE-4608-99D2-B10975534BB0",
"token" : "0x6004633",
"native_offset" : "0x0",
"filename" : "mscorlib.dll",
"sizeofimage" : "0x472000",
"timestamp" : "0x99dbfea7",
"il_offset" : "0x00000"
}
,
{
"is_managed" : "true",
"guid" : "533173D2-4DAE-4608-99D2-B10975534BB0",
"token" : "0x6001ec4",
"native_offset" : "0x0",
"filename" : "mscorlib.dll",
"sizeofimage" : "0x472000",
"timestamp" : "0x99dbfea7",
"il_offset" : "0x00071"
}
,
{
"is_managed" : "true",
"guid" : "533173D2-4DAE-4608-99D2-B10975534BB0",
"token" : "0x6001ec2",
"native_offset" : "0x0",
"filename" : "mscorlib.dll",
"sizeofimage" : "0x472000",
"timestamp" : "0x99dbfea7",
"il_offset" : "0x00000"
}
,
{
"is_managed" : "true",
"guid" : "533173D2-4DAE-4608-99D2-B10975534BB0",
"token" : "0x6004632",
"native_offset" : "0x0",
"filename" : "mscorlib.dll",
"sizeofimage" : "0x472000",
"timestamp" : "0x99dbfea7",
"il_offset" : "0x00024"
}
,
{
"is_managed" : "true",
"guid" : "533173D2-4DAE-4608-99D2-B10975534BB0",
"token" : "0x6002452",
"native_offset" : "0x0",
"filename" : "mscorlib.dll",
"sizeofimage" : "0x472000",
"timestamp" : "0x99dbfea7",
"il_offset" : "0x00000"
}
,
{
"is_managed" : "true",
"guid" : "533173D2-4DAE-4608-99D2-B10975534BB0",
"token" : "0x6002399",
"native_offset" : "0x0",
"filename" : "mscorlib.dll",
"sizeofimage" : "0x472000",
"timestamp" : "0x99dbfea7",
"il_offset" : "0x00025"
}
,
{
"is_managed" : "true",
"guid" : "533173D2-4DAE-4608-99D2-B10975534BB0",
"token" : "0x6002395",
"native_offset" : "0x0",
"filename" : "mscorlib.dll",
"sizeofimage" : "0x472000",
"timestamp" : "0x99dbfea7",
"il_offset" : "0x00000"
}
,
{
"is_managed" : "true",
"guid" : "533173D2-4DAE-4608-99D2-B10975534BB0",
"token" : "0x6002398",
"native_offset" : "0x0",
"filename" : "mscorlib.dll",
"sizeofimage" : "0x472000",
"timestamp" : "0x99dbfea7",
"il_offset" : "0x00000"
}
,
{
"is_managed" : "true",
"guid" : "533173D2-4DAE-4608-99D2-B10975534BB0",
"token" : "0x6001ec4",
"native_offset" : "0x0",
"filename" : "mscorlib.dll",
"sizeofimage" : "0x472000",
"timestamp" : "0x99dbfea7",
"il_offset" : "0x00071"
}
,
{
"is_managed" : "true",
"guid" : "533173D2-4DAE-4608-99D2-B10975534BB0",
"token" : "0x6001ec2",
"native_offset" : "0x0",
"filename" : "mscorlib.dll",
"sizeofimage" : "0x472000",
"timestamp" : "0x99dbfea7",
"il_offset" : "0x00000"
}
,
{
"is_managed" : "true",
"guid" : "533173D2-4DAE-4608-99D2-B10975534BB0",
"token" : "0x6002401",
"native_offset" : "0x0",
"filename" : "mscorlib.dll",
"sizeofimage" : "0x472000",
"timestamp" : "0x99dbfea7",
"il_offset" : "0x00034"
}
,
{
"is_managed" : "true",
"guid" : "533173D2-4DAE-4608-99D2-B10975534BB0",
"token" : "0x6002397",
"native_offset" : "0x0",
"filename" : "mscorlib.dll",
"sizeofimage" : "0x472000",
"timestamp" : "0x99dbfea7",
"il_offset" : "0x0004a"
}
,
{
"is_managed" : "true",
"guid" : "533173D2-4DAE-4608-99D2-B10975534BB0",
"token" : "0x60024e2",
"native_offset" : "0x0",
"filename" : "mscorlib.dll",
"sizeofimage" : "0x472000",
"timestamp" : "0x99dbfea7",
"il_offset" : "0x00014"
}
,
{
"is_managed" : "true",
"guid" : "F5C26A75-6012-4A5F-9B72-55EB2A34A9A9",
"token" : "0x6002267",
"native_offset" : "0x0",
"filename" : "Microsoft.Build.dll",
"sizeofimage" : "0x1e6000",
"timestamp" : "0xd74c9315",
"il_offset" : "0x0001a"
}
,
{
"is_managed" : "true",
"guid" : "533173D2-4DAE-4608-99D2-B10975534BB0",
"token" : "0x6001f1c",
"native_offset" : "0x0",
"filename" : "mscorlib.dll",
"sizeofimage" : "0x472000",
"timestamp" : "0x99dbfea7",
"il_offset" : "0x00014"
}
,
{
"is_managed" : "true",
"guid" : "533173D2-4DAE-4608-99D2-B10975534BB0",
"token" : "0x6001ec4",
"native_offset" : "0x0",
"filename" : "mscorlib.dll",
"sizeofimage" : "0x472000",
"timestamp" : "0x99dbfea7",
"il_offset" : "0x00071"
}
,
{
"is_managed" : "true",
"guid" : "533173D2-4DAE-4608-99D2-B10975534BB0",
"token" : "0x6001ec2",
"native_offset" : "0x0",
"filename" : "mscorlib.dll",
"sizeofimage" : "0x472000",
"timestamp" : "0x99dbfea7",
"il_offset" : "0x00000"
}
,
{
"is_managed" : "true",
"guid" : "533173D2-4DAE-4608-99D2-B10975534BB0",
"token" : "0x6001ec1",
"native_offset" : "0x0",
"filename" : "mscorlib.dll",
"sizeofimage" : "0x472000",
"timestamp" : "0x99dbfea7",
"il_offset" : "0x0002b"
}
,
{
"is_managed" : "true",
"guid" : "533173D2-4DAE-4608-99D2-B10975534BB0",
"token" : "0x6001f1e",
"native_offset" : "0x0",
"filename" : "mscorlib.dll",
"sizeofimage" : "0x472000",
"timestamp" : "0x99dbfea7",
"il_offset" : "0x00008"
}
,
{
"is_managed" : "true",
"guid" : "533173D2-4DAE-4608-99D2-B10975534BB0",
"token" : "0x00000",
"native_offset" : "0x0",
"filename" : "mscorlib.dll",
"sizeofimage" : "0x472000",
"timestamp" : "0x99dbfea7",
"il_offset" : "0x0002a"
}

],
"unmanaged_frames" : [
{
"is_managed" : "false",
"native_address" : "0x55cdd47ec4c9",
"native_offset" : "0x00000"
}
,
{
"is_managed" : "false",
"native_address" : "0x55cdd49d2319",
"native_offset" : "0x00000"
}
,
{
"is_managed" : "false",
"native_address" : "0x55cdd49d3655",
"native_offset" : "0x00000"
}
,
{
"is_managed" : "false",
"native_address" : "0x55cdd49dc82c",
"native_offset" : "0x00000"
}
,
{
"is_managed" : "false",
"native_address" : "0x55cdd48422a7",
"native_offset" : "0x00000"
}
,
{
"is_managed" : "false",
"native_address" : "0x55cdd48424b9",
"native_offset" : "0x00000"
}
,
{
"is_managed" : "false",
"native_address" : "0x55cdd47ee7af",
"native_offset" : "0x00000"
}
,
{
"is_managed" : "false",
"native_address" : "0x55cdd483bb13",
"native_offset" : "0x00000"
}
,
{
"is_managed" : "false",
"native_address" : "0x55cdd4919cb8",
"native_offset" : "0x00000"
}
,
{
"is_managed" : "false",
"native_address" : "0x55cdd491c6ab",
"native_offset" : "0x00000"
}
,
{
"is_managed" : "false",
"native_address" : "0x55cdd49550f1",
"native_offset" : "0x00000"
}
,
{
"is_managed" : "false",
"native_address" : "0x55cdd49630d0",
"native_offset" : "0x00000"
}
,
{
"is_managed" : "true",
"guid" : "533173D2-4DAE-4608-99D2-B10975534BB0",
"token" : "0x00000",
"native_offset" : "0x0",
"filename" : "mscorlib.dll",
"sizeofimage" : "0x472000",
"timestamp" : "0x99dbfea7",
"il_offset" : "0x00000"
}

]
},
{
"is_managed" : false,
"offset_free_hash" : "0x0",
"offset_rich_hash" : "0x0",
"crashed" : false,
"native_thread_id" : "0x7efdef5eb700",
"thread_info_addr" : "0x7efdd8009c80",
"thread_name" : "Thread Pool Wor",
"ctx" : {
"IP" : "0x7efdf7767618",
"SP" : "0x7efdef5eac70",
"BP" : "0x55cdd4e01d88"
},
"unmanaged_frames" : [
{
"is_managed" : "false",
"native_address" : "0x55cdd47ec4c9",
"native_offset" : "0x00000"
}
,
{
"is_managed" : "false",
"native_address" : "0x55cdd49d2319",
"native_offset" : "0x00000"
}
,
{
"is_managed" : "false",
"native_address" : "0x55cdd49d3655",
"native_offset" : "0x00000"
}
,
{
"is_managed" : "false",
"native_address" : "0x55cdd49dc6c7",
"native_offset" : "0x00000"
}
,
{
"is_managed" : "false",
"native_address" : "0x55cdd48415b5",
"native_offset" : "0x00000"
}
,
{
"is_managed" : "false",
"native_address" : "0x7efdf77693c0",
"native_offset" : "0x00000"
}
,
{
"is_managed" : "false",
"native_address" : "0x7efdf7767618",
"native_offset" : "0x00000"
}
,
{
"is_managed" : "false",
"native_address" : "0x7efdf7767743",
"native_offset" : "0x00000"
}
,
{
"is_managed" : "false",
"native_address" : "0x55cdd4a2d7bd",
"native_offset" : "0x00000"
}
,
{
"is_managed" : "false",
"native_address" : "0x55cdd49dbfdc",
"native_offset" : "0x00000"
}
,
{
"is_managed" : "false",
"native_address" : "0x7efdf775d609",
"native_offset" : "0x00000"
}
,
{
"is_managed" : "false",
"native_address" : "0x7efdf7337293",
"native_offset" : "0x00000"
}

]
},
{
"is_managed" : false,
"offset_free_hash" : "0x0",
"offset_rich_hash" : "0x0",
"crashed" : false,
"native_thread_id" : "0x7efdf4b0f700",
"thread_info_addr" : "0x7efdf0000b60",
"thread_name" : "Finalizer",
"ctx" : {
"IP" : "0x7efdf77673f4",
"SP" : "0x7efdf4b0ed10",
"BP" : "0x55cdd4e01480"
},
"unmanaged_frames" : [
{
"is_managed" : "false",
"native_address" : "0x55cdd47ec4c9",
"native_offset" : "0x00000"
}
,
{
"is_managed" : "false",
"native_address" : "0x55cdd49d2319",
"native_offset" : "0x00000"
}
,
{
"is_managed" : "false",
"native_address" : "0x55cdd49d3655",
"native_offset" : "0x00000"
}
,
{
"is_managed" : "false",
"native_address" : "0x55cdd49dc6c7",
"native_offset" : "0x00000"
}
,
{
"is_managed" : "false",
"native_address" : "0x55cdd48415b5",
"native_offset" : "0x00000"
}
,
{
"is_managed" : "false",
"native_address" : "0x7efdf77693c0",
"native_offset" : "0x00000"
}
,
{
"is_managed" : "false",
"native_address" : "0x7efdf77673f4",
"native_offset" : "0x00000"
}
,
{
"is_managed" : "false",
"native_address" : "0x7efdf77674e8",
"native_offset" : "0x00000"
}
,
{
"is_managed" : "false",
"native_address" : "0x55cdd4a1d868",
"native_offset" : "0x00000"
}
,
{
"is_managed" : "false",
"native_address" : "0x55cdd49dbfdc",
"native_offset" : "0x00000"
}
,
{
"is_managed" : "false",
"native_address" : "0x7efdf775d609",
"native_offset" : "0x00000"
}
,
{
"is_managed" : "false",
"native_address" : "0x7efdf7337293",
"native_offset" : "0x00000"
}

]
},
{
"is_managed" : true,
"offset_free_hash" : "0xae0302b32",
"offset_rich_hash" : "0xae0302e29",
"crashed" : false,
"native_thread_id" : "0x7efdec75d700",
"thread_info_addr" : "0x7efda4000b60",
"thread_name" : "RequestBuilder ",
"ctx" : {
"IP" : "0x7efdf7764376",
"SP" : "0x7efdec75c260",
"BP" : "0x55cdd53c5390"
},
"managed_frames" : [
{
"is_managed" : "false",
"native_address" : "unregistered"
}
,
{
"is_managed" : "true",
"guid" : "533173D2-4DAE-4608-99D2-B10975534BB0",
"token" : "0x00000",
"native_offset" : "0x0",
"filename" : "mscorlib.dll",
"sizeofimage" : "0x472000",
"timestamp" : "0x99dbfea7",
"il_offset" : "0x00000"
}
,
{
"is_managed" : "true",
"guid" : "533173D2-4DAE-4608-99D2-B10975534BB0",
"token" : "0x6001efc",
"native_offset" : "0x0",
"filename" : "mscorlib.dll",
"sizeofimage" : "0x472000",
"timestamp" : "0x99dbfea7",
"il_offset" : "0x0002f"
}
,
{
"is_managed" : "true",
"guid" : "533173D2-4DAE-4608-99D2-B10975534BB0",
"token" : "0x6001eef",
"native_offset" : "0x0",
"filename" : "mscorlib.dll",
"sizeofimage" : "0x472000",
"timestamp" : "0x99dbfea7",
"il_offset" : "0x0000e"
}
,
{
"is_managed" : "true",
"guid" : "533173D2-4DAE-4608-99D2-B10975534BB0",
"token" : "0x6001ef1",
"native_offset" : "0x0",
"filename" : "mscorlib.dll",
"sizeofimage" : "0x472000",
"timestamp" : "0x99dbfea7",
"il_offset" : "0x00000"
}
,
{
"is_managed" : "true",
"guid" : "533173D2-4DAE-4608-99D2-B10975534BB0",
"token" : "0x6001e41",
"native_offset" : "0x0",
"filename" : "mscorlib.dll",
"sizeofimage" : "0x472000",
"timestamp" : "0x99dbfea7",
"il_offset" : "0x0001d"
}
,
{
"is_managed" : "true",
"guid" : "533173D2-4DAE-4608-99D2-B10975534BB0",
"token" : "0x6001e40",
"native_offset" : "0x0",
"filename" : "mscorlib.dll",
"sizeofimage" : "0x472000",
"timestamp" : "0x99dbfea7",
"il_offset" : "0x000d9"
}
,
{
"is_managed" : "true",
"guid" : "9C6E2CB7-DDD8-473F-A420-642DDCF7CE48",
"token" : "0x6003b86",
"native_offset" : "0x0",
"filename" : "System.dll",
"sizeofimage" : "0x286000",
"timestamp" : "0xe193f384",
"il_offset" : "0x00067"
}
,
{
"is_managed" : "true",
"guid" : "9C6E2CB7-DDD8-473F-A420-642DDCF7CE48",
"token" : "0x600427a",
"native_offset" : "0x0",
"filename" : "System.dll",
"sizeofimage" : "0x286000",
"timestamp" : "0xe193f384",
"il_offset" : "0x0004d"
}
,
{
"is_managed" : "true",
"guid" : "F5C26A75-6012-4A5F-9B72-55EB2A34A9A9",
"token" : "0x6002267",
"native_offset" : "0x0",
"filename" : "Microsoft.Build.dll",
"sizeofimage" : "0x1e6000",
"timestamp" : "0xd74c9315",
"il_offset" : "0x0002e"
}
,
{
"is_managed" : "true",
"guid" : "533173D2-4DAE-4608-99D2-B10975534BB0",
"token" : "0x6001f1c",
"native_offset" : "0x0",
"filename" : "mscorlib.dll",
"sizeofimage" : "0x472000",
"timestamp" : "0x99dbfea7",
"il_offset" : "0x00014"
}
,
{
"is_managed" : "true",
"guid" : "533173D2-4DAE-4608-99D2-B10975534BB0",
"token" : "0x6001ec4",
"native_offset" : "0x0",
"filename" : "mscorlib.dll",
"sizeofimage" : "0x472000",
"timestamp" : "0x99dbfea7",
"il_offset" : "0x00071"
}
,
{
"is_managed" : "true",
"guid" : "533173D2-4DAE-4608-99D2-B10975534BB0",
"token" : "0x6001ec2",
"native_offset" : "0x0",
"filename" : "mscorlib.dll",
"sizeofimage" : "0x472000",
"timestamp" : "0x99dbfea7",
"il_offset" : "0x00000"
}
,
{
"is_managed" : "true",
"guid" : "533173D2-4DAE-4608-99D2-B10975534BB0",
"token" : "0x6001ec1",
"native_offset" : "0x0",
"filename" : "mscorlib.dll",
"sizeofimage" : "0x472000",
"timestamp" : "0x99dbfea7",
"il_offset" : "0x0002b"
}
,
{
"is_managed" : "true",
"guid" : "533173D2-4DAE-4608-99D2-B10975534BB0",
"token" : "0x6001f1e",
"native_offset" : "0x0",
"filename" : "mscorlib.dll",
"sizeofimage" : "0x472000",
"timestamp" : "0x99dbfea7",
"il_offset" : "0x00008"
}
,
{
"is_managed" : "true",
"guid" : "533173D2-4DAE-4608-99D2-B10975534BB0",
"token" : "0x00000",
"native_offset" : "0x0",
"filename" : "mscorlib.dll",
"sizeofimage" : "0x472000",
"timestamp" : "0x99dbfea7",
"il_offset" : "0x0002a"
}

],
"unmanaged_frames" : [
{
"is_managed" : "false",
"native_address" : "0x55cdd47ec4c9",
"native_offset" : "0x00000"
}
,
{
"is_managed" : "false",
"native_address" : "0x55cdd49d2319",
"native_offset" : "0x00000"
}
,
{
"is_managed" : "false",
"native_address" : "0x55cdd49d3655",
"native_offset" : "0x00000"
}
,
{
"is_managed" : "false",
"native_address" : "0x55cdd49dc6c7",
"native_offset" : "0x00000"
}
,
{
"is_managed" : "false",
"native_address" : "0x55cdd48415b5",
"native_offset" : "0x00000"
}
,
{
"is_managed" : "false",
"native_address" : "0x7efdf77693c0",
"native_offset" : "0x00000"
}
,
{
"is_managed" : "false",
"native_address" : "0x7efdf7764376",
"native_offset" : "0x00000"
}
,
{
"is_managed" : "false",
"native_address" : "0x55cdd4a87efd",
"native_offset" : "0x00000"
}
,
{
"is_managed" : "false",
"native_address" : "0x55cdd49e6aec",
"native_offset" : "0x00000"
}
,
{
"is_managed" : "false",
"native_address" : "0x55cdd49e80ff",
"native_offset" : "0x00000"
}
,
{
"is_managed" : "false",
"native_address" : "0x55cdd4a219cd",
"native_offset" : "0x00000"
}
,
{
"is_managed" : "false",
"native_address" : "0x55cdd496f0d6",
"native_offset" : "0x00000"
}
,
{
"is_managed" : "true",
"guid" : "533173D2-4DAE-4608-99D2-B10975534BB0",
"token" : "0x00000",
"native_offset" : "0x0",
"filename" : "mscorlib.dll",
"sizeofimage" : "0x472000",
"timestamp" : "0x99dbfea7",
"il_offset" : "0x00000"
}

]
},
{
"is_managed" : true,
"offset_free_hash" : "0x701103b6e",
"offset_rich_hash" : "0x701103c6d",
"crashed" : false,
"native_thread_id" : "0x7efdef176700",
"thread_info_addr" : "0x7efddc000b60",
"thread_name" : "Thread Pool Wor",
"ctx" : {
"IP" : "0x7efdf77647b1",
"SP" : "0x7efdef175640",
"BP" : "0x55cdd4e10860"
},
"managed_frames" : [
{
"is_managed" : "false",
"native_address" : "unregistered"
}
,
{
"is_managed" : "true",
"guid" : "533173D2-4DAE-4608-99D2-B10975534BB0",
"token" : "0x00000",
"native_offset" : "0x0",
"filename" : "mscorlib.dll",
"sizeofimage" : "0x472000",
"timestamp" : "0x99dbfea7",
"il_offset" : "0x00000"
}
,
{
"is_managed" : "true",
"guid" : "533173D2-4DAE-4608-99D2-B10975534BB0",
"token" : "0x6001f43",
"native_offset" : "0x0",
"filename" : "mscorlib.dll",
"sizeofimage" : "0x472000",
"timestamp" : "0x99dbfea7",
"il_offset" : "0x00019"
}
,
{
"is_managed" : "true",
"guid" : "F9C97B26-2149-4D4F-A382-A0BDDF871DA8",
"token" : "0x6000176",
"native_offset" : "0x0",
"filename" : "MonoDevelop.MSBuildBuilder.exe",
"sizeofimage" : "0x14000",
"timestamp" : "0xde5f999a",
"il_offset" : "0x00004"
}
,
{
"is_managed" : "true",
"guid" : "533173D2-4DAE-4608-99D2-B10975534BB0",
"token" : "0x6001f1c",
"native_offset" : "0x0",
"filename" : "mscorlib.dll",
"sizeofimage" : "0x472000",
"timestamp" : "0x99dbfea7",
"il_offset" : "0x00014"
}
,
{
"is_managed" : "true",
"guid" : "533173D2-4DAE-4608-99D2-B10975534BB0",
"token" : "0x6001ec4",
"native_offset" : "0x0",
"filename" : "mscorlib.dll",
"sizeofimage" : "0x472000",
"timestamp" : "0x99dbfea7",
"il_offset" : "0x00071"
}
,
{
"is_managed" : "true",
"guid" : "533173D2-4DAE-4608-99D2-B10975534BB0",
"token" : "0x6001ec2",
"native_offset" : "0x0",
"filename" : "mscorlib.dll",
"sizeofimage" : "0x472000",
"timestamp" : "0x99dbfea7",
"il_offset" : "0x00000"
}
,
{
"is_managed" : "true",
"guid" : "533173D2-4DAE-4608-99D2-B10975534BB0",
"token" : "0x6001ec1",
"native_offset" : "0x0",
"filename" : "mscorlib.dll",
"sizeofimage" : "0x472000",
"timestamp" : "0x99dbfea7",
"il_offset" : "0x0002b"
}
,
{
"is_managed" : "true",
"guid" : "533173D2-4DAE-4608-99D2-B10975534BB0",
"token" : "0x6001f1e",
"native_offset" : "0x0",
"filename" : "mscorlib.dll",
"sizeofimage" : "0x472000",
"timestamp" : "0x99dbfea7",
"il_offset" : "0x00008"
}
,
{
"is_managed" : "true",
"guid" : "533173D2-4DAE-4608-99D2-B10975534BB0",
"token" : "0x00000",
"native_offset" : "0x0",
"filename" : "mscorlib.dll",
"sizeofimage" : "0x472000",
"timestamp" : "0x99dbfea7",
"il_offset" : "0x0002a"
}

],
"unmanaged_frames" : [
{
"is_managed" : "false",
"native_address" : "0x55cdd47ec4c9",
"native_offset" : "0x00000"
}
,
{
"is_managed" : "false",
"native_address" : "0x55cdd49d2319",
"native_offset" : "0x00000"
}
,
{
"is_managed" : "false",
"native_address" : "0x55cdd49d3655",
"native_offset" : "0x00000"
}
,
{
"is_managed" : "false",
"native_address" : "0x55cdd49dc6c7",
"native_offset" : "0x00000"
}
,
{
"is_managed" : "false",
"native_address" : "0x55cdd48415b5",
"native_offset" : "0x00000"
}
,
{
"is_managed" : "false",
"native_address" : "0x7efdf77693c0",
"native_offset" : "0x00000"
}
,
{
"is_managed" : "false",
"native_address" : "0x7efdf77647b1",
"native_offset" : "0x00000"
}
,
{
"is_managed" : "false",
"native_address" : "0x55cdd4a87e9b",
"native_offset" : "0x00000"
}
,
{
"is_managed" : "false",
"native_address" : "0x55cdd4a92948",
"native_offset" : "0x00000"
}
,
{
"is_managed" : "false",
"native_address" : "0x55cdd49d97d0",
"native_offset" : "0x00000"
}
,
{
"is_managed" : "false",
"native_address" : "0x55cdd497059b",
"native_offset" : "0x00000"
}
,
{
"is_managed" : "true",
"guid" : "533173D2-4DAE-4608-99D2-B10975534BB0",
"token" : "0x00000",
"native_offset" : "0x0",
"filename" : "mscorlib.dll",
"sizeofimage" : "0x472000",
"timestamp" : "0x99dbfea7",
"il_offset" : "0x00000"
}

]
},
{
"is_managed" : false,
"offset_free_hash" : "0x0",
"offset_rich_hash" : "0x0",
"crashed" : false,
"native_thread_id" : "0x7efdf7213fc0",
"thread_info_addr" : "0x55cdd53ce470",
"thread_name" : "mono",
"ctx" : {
"IP" : "0x7efdf7764376",
"SP" : "0x7ffeaadb11a0",
"BP" : "0x7ffeaadb12a0"
},
"unmanaged_frames" : [
{
"is_managed" : "false",
"native_address" : "0x55cdd47ec4c9",
"native_offset" : "0x00000"
}
,
{
"is_managed" : "false",
"native_address" : "0x55cdd49d2319",
"native_offset" : "0x00000"
}
,
{
"is_managed" : "false",
"native_address" : "0x55cdd49d3655",
"native_offset" : "0x00000"
}
,
{
"is_managed" : "false",
"native_address" : "0x55cdd49dc6c7",
"native_offset" : "0x00000"
}
,
{
"is_managed" : "false",
"native_address" : "0x55cdd48415b5",
"native_offset" : "0x00000"
}
,
{
"is_managed" : "false",
"native_address" : "0x7efdf77693c0",
"native_offset" : "0x00000"
}
,
{
"is_managed" : "false",
"native_address" : "0x7efdf7764376",
"native_offset" : "0x00000"
}
,
{
"is_managed" : "false",
"native_address" : "0x55cdd4a7d8af",
"native_offset" : "0x00000"
}
,
{
"is_managed" : "false",
"native_address" : "0x55cdd4a93124",
"native_offset" : "0x00000"
}
,
{
"is_managed" : "false",
"native_address" : "0x55cdd49d314c",
"native_offset" : "0x00000"
}
,
{
"is_managed" : "false",
"native_address" : "0x55cdd49d6fc2",
"native_offset" : "0x00000"
}
,
{
"is_managed" : "false",
"native_address" : "0x55cdd47c2f7b",
"native_offset" : "0x00000"
}
,
{
"is_managed" : "false",
"native_address" : "0x55cdd47b1f1c",
"native_offset" : "0x00000"
}
,
{
"is_managed" : "false",
"native_address" : "0x7efdf723c0b3",
"native_offset" : "0x00000"
}
,
{
"is_managed" : "false",
"native_address" : "0x55cdd47b253a",
"native_offset" : "0x00000"
}

]
},
{
"is_managed" : false,
"offset_free_hash" : "0x0",
"offset_rich_hash" : "0x0",
"crashed" : false,
"native_thread_id" : "0x7efdee673700",
"thread_info_addr" : "0x7efdd4014ac0",
"thread_name" : "Thread Pool Wor",
"ctx" : {
"IP" : "0x7efdf7767618",
"SP" : "0x7efdee672c70",
"BP" : "0x55cdd4e01d88"
},
"unmanaged_frames" : [
{
"is_managed" : "false",
"native_address" : "0x55cdd47ec4c9",
"native_offset" : "0x00000"
}
,
{
"is_managed" : "false",
"native_address" : "0x55cdd49d2319",
"native_offset" : "0x00000"
}
,
{
"is_managed" : "false",
"native_address" : "0x55cdd49d3655",
"native_offset" : "0x00000"
}
,
{
"is_managed" : "false",
"native_address" : "0x55cdd49dc6c7",
"native_offset" : "0x00000"
}
,
{
"is_managed" : "false",
"native_address" : "0x55cdd48415b5",
"native_offset" : "0x00000"
}
,
{
"is_managed" : "false",
"native_address" : "0x7efdf77693c0",
"native_offset" : "0x00000"
}
,
{
"is_managed" : "false",
"native_address" : "0x7efdf7767618",
"native_offset" : "0x00000"
}
,
{
"is_managed" : "false",
"native_address" : "0x7efdf7767743",
"native_offset" : "0x00000"
}
,
{
"is_managed" : "false",
"native_address" : "0x55cdd4a2d7bd",
"native_offset" : "0x00000"
}
,
{
"is_managed" : "false",
"native_address" : "0x55cdd49dbfdc",
"native_offset" : "0x00000"
}
,
{
"is_managed" : "false",
"native_address" : "0x7efdf775d609",
"native_offset" : "0x00000"
}
,
{
"is_managed" : "false",
"native_address" : "0x7efdf7337293",
"native_offset" : "0x00000"
}

]
},
{
"is_managed" : false,
"offset_free_hash" : "0x0",
"offset_rich_hash" : "0x0",
"crashed" : false,
"native_thread_id" : "0x7efdee271700",
"thread_info_addr" : "0x7efdcc007530",
"thread_name" : "Thread Pool Wor",
"ctx" : {
"IP" : "0x7efdf7767618",
"SP" : "0x7efdee270c70",
"BP" : "0x55cdd4e01d88"
},
"unmanaged_frames" : [
{
"is_managed" : "false",
"native_address" : "0x55cdd47ec4c9",
"native_offset" : "0x00000"
}
,
{
"is_managed" : "false",
"native_address" : "0x55cdd49d2319",
"native_offset" : "0x00000"
}
,
{
"is_managed" : "false",
"native_address" : "0x55cdd49d3655",
"native_offset" : "0x00000"
}
,
{
"is_managed" : "false",
"native_address" : "0x55cdd49dc6c7",
"native_offset" : "0x00000"
}
,
{
"is_managed" : "false",
"native_address" : "0x55cdd48415b5",
"native_offset" : "0x00000"
}
,
{
"is_managed" : "false",
"native_address" : "0x7efdf77693c0",
"native_offset" : "0x00000"
}
,
{
"is_managed" : "false",
"native_address" : "0x7efdf7767618",
"native_offset" : "0x00000"
}
,
{
"is_managed" : "false",
"native_address" : "0x7efdf7767743",
"native_offset" : "0x00000"
}
,
{
"is_managed" : "false",
"native_address" : "0x55cdd4a2d7bd",
"native_offset" : "0x00000"
}
,
{
"is_managed" : "false",
"native_address" : "0x55cdd49dbfdc",
"native_offset" : "0x00000"
}
,
{
"is_managed" : "false",
"native_address" : "0x7efdf775d609",
"native_offset" : "0x00000"
}
,
{
"is_managed" : "false",
"native_address" : "0x7efdf7337293",
"native_offset" : "0x00000"
}

]
}
]
}